<svg width="114" height="25" viewBox="0 0 114 25" fill="none" xmlns="http://www.w3.org/2000/svg">
<path d="M7.88332 16.6949C11.7268 16.6949 13.226 14.3967 13.226 10.4647C13.226 6.53363 11.4727 3.79261 7.99594 3.79261H4.09933V16.6949H7.88332ZM0 0.359941H8.50498C13.9035 0.359941 17.3802 4.62365 17.3802 10.4647C17.3802 13.676 16.2775 16.5008 14.1575 18.2449C12.6593 19.4624 10.7087 20.1549 8.16532 20.1549H0V0.359941ZM29.0881 13.0681C29.0881 10.2989 27.7601 8.41626 25.414 8.41626C23.0391 8.41626 21.7381 10.2989 21.7381 13.0681C21.7381 15.8365 23.0391 17.6909 25.414 17.6909C27.7601 17.6909 29.0881 15.8365 29.0881 13.0681ZM17.8379 13.0681C17.8379 8.83178 20.9192 5.56497 25.414 5.56497C29.908 5.56497 32.9892 8.83178 32.9892 13.0681C32.9892 17.3027 29.908 20.5704 25.414 20.5704C20.9183 20.5704 17.8379 17.3036 17.8379 13.0681ZM33.6244 13.0681C33.6244 8.83178 36.4516 5.56497 40.8608 5.56497C44.6214 5.56497 46.9386 7.69726 47.4477 10.77H43.688C43.4339 9.52431 42.4447 8.58212 41.0311 8.58212C38.713 8.58212 37.5264 10.3271 37.5264 13.0681C37.5264 15.7536 38.6283 17.5533 40.9743 17.5533C42.5294 17.5533 43.6321 16.7505 43.8862 15.1449H47.5891C47.3351 18.162 44.9313 20.5704 41.059 20.5704C36.4804 20.5704 33.6244 17.3036 33.6244 13.0681ZM57.5987 20.1558V18.4946H57.514C56.5248 19.7959 55.3941 20.5431 53.3588 20.5431C50.1361 20.5431 48.327 18.5228 48.327 15.421V5.95226H52.1425V14.784C52.1425 16.4452 52.9065 17.3592 54.5454 17.3592C56.3545 17.3592 57.4572 16.0306 57.4572 14.148V5.95226H61.3016V20.1558H57.5987ZM80.0315 20.1558H83.8749V5.95226H80.0315V20.1558ZM80.0315 3.96729H83.8749V0.447279H80.0315V3.96729ZM95.6179 12.4303C95.6179 10.3545 94.4872 8.583 92.1691 8.583C90.2185 8.583 88.9184 10.0775 88.9184 12.4585C88.9184 14.867 90.2185 16.2794 92.1979 16.2794C94.6287 16.2794 95.6179 14.5344 95.6179 12.4303ZM85.4696 20.5704H89.2842C89.596 21.4562 90.4149 22.1487 92.1961 22.1487C94.3728 22.1487 95.4188 21.1245 95.4188 19.1863V17.6353H95.3341C94.4854 18.5766 93.3835 19.2965 91.5456 19.2965C88.3238 19.2965 85.1579 16.8052 85.1579 12.5141C85.1579 8.27775 87.758 5.56497 91.433 5.56497C93.2421 5.56497 94.5701 6.25662 95.4467 7.4476H95.5035V5.95226H99.2064V19.0751C99.2064 21.0689 98.5559 22.4248 97.482 23.3944C96.2657 24.5016 94.4007 25 92.2529 25C88.295 25 85.8651 23.3388 85.4696 20.5704ZM104.616 7.89047H104.7C105.69 6.36777 107.019 5.56497 108.997 5.56497C111.994 5.56497 114 7.77931 114 10.8803V20.1549H110.156V11.4343C110.156 9.9116 109.251 8.83178 107.64 8.83178C105.944 8.83178 104.7 10.1604 104.7 12.0986V20.1549H100.856V5.95226H104.616V7.89047ZM71.2706 8.22217C68.2741 7.58699 66.8605 7.11589 66.8605 5.50939C66.8605 4.09785 68.302 3.18389 70.5075 3.18389C72.5193 3.18389 74.0573 4.10844 74.3726 5.95226H78.3151C77.9142 2.10848 75.0015 0 70.5354 0C66.0415 0 62.79 2.02114 62.79 5.92491C62.79 10.0501 66.0974 10.9914 69.7156 11.7942C72.7968 12.4868 74.7195 12.8741 74.7195 14.8114C74.7195 16.6393 72.8815 17.3592 70.7904 17.3592C67.9074 17.3592 66.5217 16.4179 66.2388 14.0368H62.2251C62.3665 18.2176 65.4757 20.5978 70.9598 20.5978C75.5105 20.5978 78.8179 18.3561 78.8179 14.3412C78.8179 10.0775 75.4258 9.10879 71.2706 8.22217Z" fill="white"/>
</svg>
