<svg width="126" height="32" viewBox="0 0 126 32" fill="none" xmlns="http://www.w3.org/2000/svg">
<path d="M15.8886 16.1779C15.8886 16.1779 15.7424 21.5649 23.4091 23.6984C21.1893 16.0328 15.8886 16.1779 15.8886 16.1779Z" fill="#333333"/>
<path d="M11.5258 11.8525C11.5258 11.8525 11.672 6.46739 4.00525 4.33203C6.22573 11.9976 11.5258 11.8525 11.5258 11.8525Z" fill="#333333"/>
<path d="M13.7203 17.4231C13.7203 17.4231 9.80869 21.1273 13.7203 28.0579C17.5714 21.0667 13.7203 17.4231 13.7203 17.4231Z" fill="#333333"/>
<path d="M13.6934 11.2777C13.6934 11.2777 17.6056 7.57348 13.6934 0.642853C9.8429 7.63343 13.6934 11.2777 13.6934 11.2777Z" fill="#333333"/>
<path d="M16.7797 14.337C16.7797 14.337 20.4839 18.2486 27.4151 14.337C20.4233 10.4859 16.7797 14.337 16.7797 14.337Z" fill="#333333"/>
<path d="M10.6348 14.3639C10.6348 14.3639 6.93062 10.4523 0 14.3639C6.98997 18.215 10.6348 14.3639 10.6348 14.3639Z" fill="#333333"/>
<path d="M15.8701 11.834C15.8701 11.834 21.2552 11.9815 23.39 4.31413C15.7244 6.53402 15.8701 11.834 15.8701 11.834Z" fill="#333333"/>
<path d="M11.5442 16.1984C11.5442 16.1984 6.15844 16.0515 4.02368 23.7183C11.6905 21.4984 11.5442 16.1984 11.5442 16.1984Z" fill="#333333"/>
<path d="M77.9916 18.9181V17.4511C77.56 17.9025 77.078 18.2419 76.5457 18.4721C76.0146 18.7029 75.4462 18.818 74.8432 18.818C73.4314 18.818 72.2612 18.3468 71.3278 17.4026C70.3944 16.459 69.9292 15.2762 69.9292 13.8572C69.9292 13.196 70.0443 12.5677 70.2787 11.9743C70.5125 11.3814 70.8446 10.8598 71.2768 10.4102C71.748 9.91264 72.266 9.54695 72.8247 9.31135C73.3852 9.07396 74.0243 8.95526 74.7407 8.95526C75.3845 8.95526 75.9762 9.07036 76.5169 9.29757C77.0571 9.52657 77.548 9.87247 77.9916 10.3353V9.20405H79.8614V18.9181H77.9916ZM71.8643 13.8458C71.8643 14.7397 72.1599 15.4878 72.7492 16.0927C73.3415 16.6976 74.0626 17.0003 74.9199 17.0003C75.6992 17.0003 76.3886 16.6958 76.9851 16.0897C77.5804 15.4812 77.8783 14.7714 77.8783 13.9579C77.8783 13.0923 77.5834 12.3483 76.9917 11.7321C76.4018 11.1122 75.6992 10.8035 74.8863 10.8035C74.053 10.8035 73.3415 11.0972 72.7492 11.6871C72.1599 12.2752 71.8643 12.9952 71.8643 13.8458Z" fill="#333333"/>
<path d="M97.8351 23.1384C95.792 24.0946 92.4925 22.5437 92.4925 22.5437L93.2952 20.7411C93.2952 20.7411 94.876 21.804 97.0575 21.2489C99.1533 20.4186 98.9645 18.6009 98.9645 18.6009V17.4511C98.5317 17.9025 98.0503 18.2419 97.518 18.4721C96.9856 18.7029 96.4173 18.818 95.8148 18.818C94.4048 18.818 93.2322 18.3468 92.3001 17.4026C91.3679 16.459 90.8997 15.2762 90.8997 13.8572C90.8997 13.196 91.0166 12.5677 91.2504 11.9743C91.4836 11.3814 91.8169 10.8598 92.2485 10.4102C92.7209 9.91264 93.237 9.54695 93.797 9.31135C94.3581 9.07396 94.9965 8.95526 95.7135 8.95526C96.3556 8.95526 96.9472 9.07036 97.4874 9.29757C98.0287 9.52657 98.5203 9.87247 98.9645 10.3353V9.20405H100.834C100.834 9.20405 100.834 17.6634 100.834 18.6009C100.834 20.5655 99.8937 22.1763 97.8351 23.1384ZM92.836 13.8458C92.836 14.7397 93.1303 15.4878 93.7214 16.0927C94.3131 16.6976 95.0367 17.0003 95.891 17.0003C96.6721 17.0003 97.3609 16.6958 97.9574 16.0897C98.5515 15.4812 98.8512 14.7714 98.8512 13.9579C98.8512 13.0923 98.5551 12.3483 97.964 11.7321C97.3729 11.1122 96.6721 10.8035 95.8604 10.8035C95.0247 10.8035 94.3131 11.0972 93.7214 11.6871C93.1303 12.2752 92.836 12.9952 92.836 13.8458Z" fill="#333333"/>
<path d="M105.272 18.9152H103.477V9.14243H105.126V10.2083C105.481 9.78748 105.92 9.47694 106.346 9.28091C106.772 9.08428 107.26 8.98537 107.808 8.98537C109.043 8.98537 109.992 9.34985 110.652 10.0764C111.312 10.8036 111.643 11.8443 111.643 13.2009V18.9152H109.81V13.5702C109.81 12.5661 109.624 11.8227 109.253 11.3365C108.882 10.8516 108.309 10.6094 107.534 10.6094C106.689 10.6094 106.222 10.8953 105.842 11.4666C105.46 12.0361 105.272 12.9803 105.272 14.2938V18.9152Z" fill="#333333"/>
<path d="M40.5294 18.9152H38.7351V9.14243H40.3825V10.2083C40.738 9.78748 41.1762 9.47694 41.603 9.28091C42.0281 9.08428 42.5154 8.98537 43.0652 8.98537C44.3001 8.98537 45.2485 9.34985 45.9091 10.0764C46.5692 10.8036 46.8995 11.8443 46.8995 13.2009V18.9152H45.0674V13.5702C45.0674 12.5661 44.8816 11.8227 44.5111 11.3365C44.1394 10.8516 43.5663 10.6094 42.7906 10.6094C41.9459 10.6094 41.4783 10.8953 41.0989 11.4666C40.7188 12.0361 40.5294 12.9803 40.5294 14.2938V18.9152Z" fill="#333333"/>
<path d="M87.3315 18.9051V9.09097H89.377V18.9051H87.3315Z" fill="#333333"/>
<path d="M86.9299 6.02974C86.9299 5.24262 87.5666 4.60477 88.3543 4.60477C89.1402 4.60477 89.7787 5.24262 89.7787 6.02974C89.7787 6.81686 89.1402 7.45291 88.3543 7.45291C87.5666 7.45291 86.9299 6.81686 86.9299 6.02974Z" fill="#333333"/>
<path d="M82.5297 18.9049V4.7115H84.5745V18.9049H82.5297Z" fill="#333333"/>
<path d="M58.2051 18.9051V9.09097H60.2505V18.9051H58.2051Z" fill="#333333"/>
<path d="M57.8027 6.02974C57.8027 5.24262 58.4406 4.60477 59.2271 4.60477C60.0148 4.60477 60.6521 5.24262 60.6521 6.02974C60.6521 6.81686 60.0148 7.45291 59.2271 7.45291C58.4406 7.45291 57.8027 6.81686 57.8027 6.02974Z" fill="#333333"/>
<path d="M33.9331 18.9051V9.09097H35.9779V18.9051H33.9331Z" fill="#333333"/>
<path d="M33.5309 6.02974C33.5309 5.24262 34.1681 4.60477 34.9553 4.60477C35.7424 4.60477 36.3796 5.24262 36.3796 6.02974C36.3796 6.81686 35.7424 7.45291 34.9553 7.45291C34.1681 7.45291 33.5309 6.81686 33.5309 6.02974Z" fill="#333333"/>
<path d="M47.4971 9.08902H49.8183L52.2989 14.4724L54.9894 9.08902H57.3112L52.2462 18.905L47.4971 9.08902Z" fill="#333333"/>
<path d="M65.7693 13.1188C65.0385 12.8832 64.068 12.5073 64.068 11.9462C64.068 11.3311 64.484 10.9618 65.3065 10.8503C66.0115 10.7532 66.8532 11.1705 67.0654 11.3749L68.0665 9.81562C67.3513 9.34803 66.1745 8.9134 65.0217 9.07047C63.2311 9.31626 62.1196 10.4175 62.1196 11.9462C62.1196 13.8507 64.3839 14.5779 65.1285 14.8165C66.3034 15.1924 66.7195 15.5131 66.7195 16.0395C66.7195 17.0352 65.4156 17.1125 65.0157 17.1125C64.2616 17.1125 63.1981 16.6323 62.8528 16.4489L61.8715 18.001C62.0447 18.0945 63.6016 18.9098 65.0157 18.9098C66.7746 18.9098 68.6696 18.0112 68.6696 16.0395C68.6696 14.0498 66.5618 13.373 65.7693 13.1188Z" fill="#333333"/>
<path d="M117.332 9.01059C116.172 9.01059 115.227 9.95597 115.227 11.1142C115.227 12.2754 116.172 13.219 117.332 13.219C118.491 13.219 119.437 12.2754 119.437 11.1142C119.437 9.95597 118.491 9.01059 117.332 9.01059ZM119.058 11.1142C119.058 12.0668 118.282 12.8419 117.332 12.8419C116.379 12.8419 115.604 12.0668 115.604 11.1142C115.604 10.1616 116.379 9.38826 117.332 9.38826C118.282 9.38826 119.058 10.1616 119.058 11.1142Z" fill="#333333"/>
<path d="M116.513 10.0483C116.68 10.0231 116.924 10.0027 117.148 10.0027C117.501 10.0027 117.733 10.0579 117.893 10.1766C118.018 10.2635 118.095 10.4074 118.095 10.5692C118.095 10.8402 117.878 11.0207 117.611 11.0956V11.104C117.804 11.1591 117.923 11.3078 117.987 11.5218C118.071 11.8126 118.132 12.011 118.182 12.0913H117.838C117.798 12.035 117.74 11.8557 117.671 11.5968C117.596 11.3096 117.456 11.2029 117.156 11.1945H116.843V12.0913H116.513V10.0483ZM116.843 10.9889H117.183C117.534 10.9889 117.76 10.8348 117.76 10.5962C117.76 10.3289 117.521 10.212 117.171 10.212C117.011 10.212 116.901 10.2233 116.843 10.2353V10.9889Z" fill="#333333"/>
<path d="M35.5852 27.1258H34.2141V30.9286H33.6545V27.1258H32.2864V26.6629H35.5852V27.1258ZM36.675 28.1424C36.9153 27.8475 37.2278 27.7001 37.6125 27.7001C38.2825 27.7001 38.6204 28.078 38.6262 28.8338V30.9286H38.0842V28.8309C38.0823 28.6024 38.0295 28.4335 37.926 28.3241C37.8245 28.2147 37.6653 28.16 37.4485 28.16C37.2727 28.16 37.1184 28.2069 36.9856 28.3006C36.8528 28.3944 36.7493 28.5174 36.675 28.6698V30.9286H36.1331V26.4286H36.675V28.1424ZM40.7532 30.9872C40.3235 30.9872 39.9739 30.8465 39.7043 30.5653C39.4348 30.2821 39.3 29.9042 39.3 29.4315V29.3319C39.3 29.0174 39.3596 28.7372 39.4788 28.4911C39.5999 28.243 39.7678 28.0497 39.9827 27.911C40.1995 27.7704 40.4338 27.7001 40.6858 27.7001C41.0979 27.7001 41.4182 27.8358 41.6467 28.1073C41.8752 28.3788 41.9895 28.7674 41.9895 29.2733V29.4989H39.842C39.8499 29.8114 39.9407 30.0643 40.1145 30.2577C40.2903 30.4491 40.5129 30.5448 40.7825 30.5448C40.9739 30.5448 41.136 30.5057 41.2688 30.4276C41.4016 30.3495 41.5178 30.246 41.6174 30.1171L41.9485 30.3749C41.6829 30.7831 41.2844 30.9872 40.7532 30.9872ZM40.6858 28.1454C40.467 28.1454 40.2834 28.2254 40.135 28.3856C39.9866 28.5438 39.8948 28.7665 39.8596 29.0536H41.4475V29.0126C41.4319 28.7372 41.3577 28.5243 41.2249 28.3739C41.092 28.2215 40.9124 28.1454 40.6858 28.1454ZM47.3303 29.5751C47.2776 30.0262 47.1106 30.3749 46.8293 30.621C46.55 30.8651 46.178 30.9872 45.7131 30.9872C45.2092 30.9872 44.8049 30.8065 44.5002 30.4452C44.1975 30.0838 44.0461 29.6004 44.0461 28.995V28.5848C44.0461 28.1883 44.1165 27.8397 44.2571 27.5389C44.3997 27.2381 44.6008 27.0077 44.8606 26.8475C45.1204 26.6854 45.4211 26.6044 45.7629 26.6044C46.2161 26.6044 46.5793 26.7313 46.8528 26.9852C47.1262 27.2372 47.2854 27.5868 47.3303 28.034H46.7649C46.7161 27.6942 46.6096 27.4481 46.4456 27.2958C46.2834 27.1434 46.0559 27.0672 45.7629 27.0672C45.4036 27.0672 45.1213 27.2001 44.9163 27.4657C44.7131 27.7313 44.6116 28.1092 44.6116 28.5995V29.0126C44.6116 29.4754 44.7083 29.8436 44.9016 30.1171C45.095 30.3905 45.3655 30.5272 45.7131 30.5272C46.0256 30.5272 46.2649 30.4569 46.4309 30.3163C46.5989 30.1737 46.7102 29.9266 46.7649 29.5751H47.3303ZM48.6047 30.9286H48.0627V26.4286H48.6047V30.9286ZM50.7903 30.9872C50.3606 30.9872 50.011 30.8465 49.7415 30.5653C49.4719 30.2821 49.3372 29.9042 49.3372 29.4315V29.3319C49.3372 29.0174 49.3967 28.7372 49.5159 28.4911C49.637 28.243 49.8049 28.0497 50.0198 27.911C50.2366 27.7704 50.4709 27.7001 50.7229 27.7001C51.135 27.7001 51.4553 27.8358 51.6838 28.1073C51.9124 28.3788 52.0266 28.7674 52.0266 29.2733V29.4989H49.8792C49.887 29.8114 49.9778 30.0643 50.1516 30.2577C50.3274 30.4491 50.55 30.5448 50.8196 30.5448C51.011 30.5448 51.1731 30.5057 51.3059 30.4276C51.4387 30.3495 51.5549 30.246 51.6545 30.1171L51.9856 30.3749C51.72 30.7831 51.3215 30.9872 50.7903 30.9872ZM50.7229 28.1454C50.5042 28.1454 50.3206 28.2254 50.1721 28.3856C50.0237 28.5438 49.9319 28.7665 49.8967 29.0536H51.4846V29.0126C51.469 28.7372 51.3948 28.5243 51.262 28.3739C51.1292 28.2215 50.9495 28.1454 50.7229 28.1454ZM54.6135 30.9286C54.5823 30.8661 54.5569 30.7547 54.5374 30.5946C54.2854 30.8563 53.9846 30.9872 53.635 30.9872C53.3225 30.9872 53.0657 30.8993 52.8645 30.7235C52.6653 30.5458 52.5657 30.3212 52.5657 30.0497C52.5657 29.7196 52.6907 29.4637 52.9407 29.2821C53.1926 29.0985 53.5461 29.0067 54.0012 29.0067H54.5286V28.7577C54.5286 28.5682 54.4719 28.4178 54.3586 28.3065C54.2454 28.1932 54.0784 28.1366 53.8577 28.1366C53.6643 28.1366 53.5022 28.1854 53.3713 28.2831C53.2405 28.3807 53.175 28.4989 53.175 28.6376H52.6301C52.6301 28.4794 52.6858 28.327 52.7971 28.1805C52.9104 28.0321 53.0627 27.9149 53.2542 27.829C53.4475 27.743 53.6594 27.7001 53.8899 27.7001C54.2551 27.7001 54.5413 27.7919 54.7483 27.9754C54.9553 28.1571 55.0627 28.4081 55.0706 28.7284V30.1874C55.0706 30.4784 55.1077 30.7098 55.1819 30.8817V30.9286H54.6135ZM53.7141 30.5155C53.884 30.5155 54.0452 30.4715 54.1975 30.3837C54.3499 30.2958 54.4602 30.1815 54.5286 30.0409V29.3905H54.1038C53.4397 29.3905 53.1077 29.5848 53.1077 29.9735C53.1077 30.1434 53.1643 30.2762 53.2776 30.3719C53.3909 30.4676 53.5364 30.5155 53.7141 30.5155ZM57.4524 28.245C57.3704 28.2313 57.2815 28.2245 57.1858 28.2245C56.8303 28.2245 56.5891 28.3758 56.4622 28.6786V30.9286H55.9202V27.7587H56.4475L56.4563 28.1249C56.634 27.8417 56.886 27.7001 57.2122 27.7001C57.3176 27.7001 57.3977 27.7137 57.4524 27.7411V28.245ZM61.8821 29.8153H60.095L59.6936 30.9286H59.1135L60.7424 26.6629H61.2346L62.8665 30.9286H62.2893L61.8821 29.8153ZM60.2649 29.3524H61.7151L60.9885 27.3573L60.2649 29.3524ZM63.9446 30.9286H63.4026V26.4286H63.9446V30.9286ZM65.55 26.9911V27.7587H66.1418V28.1776H65.55V30.1434C65.55 30.2704 65.5764 30.3661 65.6292 30.4305C65.6819 30.493 65.7717 30.5243 65.8987 30.5243C65.9612 30.5243 66.0471 30.5126 66.1565 30.4891V30.9286C66.0139 30.9676 65.8752 30.9872 65.7405 30.9872C65.4983 30.9872 65.3157 30.9139 65.1926 30.7674C65.0696 30.621 65.0081 30.4129 65.0081 30.1434V28.1776H64.4309V27.7587H65.0081V26.9911H65.55ZM68.093 30.9872C67.6633 30.9872 67.3137 30.8465 67.0442 30.5653C66.7747 30.2821 66.6399 29.9042 66.6399 29.4315V29.3319C66.6399 29.0174 66.6995 28.7372 66.8186 28.4911C66.9397 28.243 67.1077 28.0497 67.3225 27.911C67.5393 27.7704 67.7737 27.7001 68.0256 27.7001C68.4377 27.7001 68.7581 27.8358 68.9866 28.1073C69.2151 28.3788 69.3293 28.7674 69.3293 29.2733V29.4989H67.1819C67.1897 29.8114 67.2805 30.0643 67.4543 30.2577C67.6301 30.4491 67.8528 30.5448 68.1223 30.5448C68.3137 30.5448 68.4758 30.5057 68.6086 30.4276C68.7415 30.3495 68.8577 30.246 68.9573 30.1171L69.2883 30.3749C69.0227 30.7831 68.6243 30.9872 68.093 30.9872ZM68.0256 28.1454C67.8069 28.1454 67.6233 28.2254 67.4749 28.3856C67.3264 28.5438 67.2346 28.7665 67.1995 29.0536H68.7874V29.0126C68.7717 28.7372 68.6975 28.5243 68.5647 28.3739C68.4319 28.2215 68.2522 28.1454 68.0256 28.1454ZM71.4915 28.245C71.4094 28.2313 71.3206 28.2245 71.2249 28.2245C70.8694 28.2245 70.6282 28.3758 70.5012 28.6786V30.9286H69.9592V27.7587H70.4866L70.4954 28.1249C70.6731 27.8417 70.925 27.7001 71.2512 27.7001C71.3567 27.7001 71.4368 27.7137 71.4915 27.7411V28.245ZM72.5051 27.7587L72.5227 28.1571C72.7649 27.8524 73.0813 27.7001 73.4719 27.7001C74.1418 27.7001 74.4797 28.078 74.4856 28.8338V30.9286H73.9436V28.8309C73.9417 28.6024 73.8889 28.4335 73.7854 28.3241C73.6838 28.2147 73.5247 28.16 73.3079 28.16C73.1321 28.16 72.9778 28.2069 72.845 28.3006C72.7122 28.3944 72.6086 28.5174 72.5344 28.6698V30.9286H71.9924V27.7587H72.5051ZM77.26 30.9286C77.2288 30.8661 77.2034 30.7547 77.1838 30.5946C76.9319 30.8563 76.6311 30.9872 76.2815 30.9872C75.969 30.9872 75.7122 30.8993 75.511 30.7235C75.3118 30.5458 75.2122 30.3212 75.2122 30.0497C75.2122 29.7196 75.3372 29.4637 75.5872 29.2821C75.8391 29.0985 76.1926 29.0067 76.6477 29.0067H77.175V28.7577C77.175 28.5682 77.1184 28.4178 77.0051 28.3065C76.8918 28.1932 76.7249 28.1366 76.5042 28.1366C76.3108 28.1366 76.1487 28.1854 76.0178 28.2831C75.887 28.3807 75.8215 28.4989 75.8215 28.6376H75.2766C75.2766 28.4794 75.3323 28.327 75.4436 28.1805C75.5569 28.0321 75.7092 27.9149 75.9006 27.829C76.094 27.743 76.3059 27.7001 76.5364 27.7001C76.9016 27.7001 77.1877 27.7919 77.3948 27.9754C77.6018 28.1571 77.7092 28.4081 77.717 28.7284V30.1874C77.717 30.4784 77.7542 30.7098 77.8284 30.8817V30.9286H77.26ZM76.3606 30.5155C76.5305 30.5155 76.6917 30.4715 76.844 30.3837C76.9963 30.2958 77.1067 30.1815 77.175 30.0409V29.3905H76.7502C76.0862 29.3905 75.7542 29.5848 75.7542 29.9735C75.7542 30.1434 75.8108 30.2762 75.9241 30.3719C76.0374 30.4676 76.1829 30.5155 76.3606 30.5155ZM79.302 26.9911V27.7587H79.8938V28.1776H79.302V30.1434C79.302 30.2704 79.3284 30.3661 79.3811 30.4305C79.4338 30.493 79.5237 30.5243 79.6506 30.5243C79.7131 30.5243 79.7991 30.5126 79.9084 30.4891V30.9286C79.7659 30.9676 79.6272 30.9872 79.4924 30.9872C79.2502 30.9872 79.0676 30.9139 78.9446 30.7674C78.8215 30.621 78.76 30.4129 78.76 30.1434V28.1776H78.1829V27.7587H78.76V26.9911H79.302ZM81.1184 30.9286H80.5764V27.7587H81.1184V30.9286ZM80.5325 26.9178C80.5325 26.8299 80.5588 26.7557 80.6116 26.6952C80.6663 26.6346 80.7463 26.6044 80.8518 26.6044C80.9573 26.6044 81.0374 26.6346 81.092 26.6952C81.1467 26.7557 81.1741 26.8299 81.1741 26.9178C81.1741 27.0057 81.1467 27.079 81.092 27.1376C81.0374 27.1962 80.9573 27.2254 80.8518 27.2254C80.7463 27.2254 80.6663 27.1962 80.6116 27.1376C80.5588 27.079 80.5325 27.0057 80.5325 26.9178ZM83.0344 30.1932L83.8196 27.7587H84.3733L83.2366 30.9286H82.8235L81.675 27.7587H82.2288L83.0344 30.1932ZM86.1692 30.9872C85.7395 30.9872 85.3899 30.8465 85.1204 30.5653C84.8508 30.2821 84.7161 29.9042 84.7161 29.4315V29.3319C84.7161 29.0174 84.7756 28.7372 84.8948 28.4911C85.0159 28.243 85.1838 28.0497 85.3987 27.911C85.6155 27.7704 85.8499 27.7001 86.1018 27.7001C86.5139 27.7001 86.8342 27.8358 87.0627 28.1073C87.2913 28.3788 87.4055 28.7674 87.4055 29.2733V29.4989H85.2581C85.2659 29.8114 85.3567 30.0643 85.5305 30.2577C85.7063 30.4491 85.929 30.5448 86.1985 30.5448C86.3899 30.5448 86.552 30.5057 86.6848 30.4276C86.8176 30.3495 86.9338 30.246 87.0334 30.1171L87.3645 30.3749C87.0989 30.7831 86.7004 30.9872 86.1692 30.9872ZM86.1018 28.1454C85.8831 28.1454 85.6995 28.2254 85.551 28.3856C85.4026 28.5438 85.3108 28.7665 85.2756 29.0536H86.8635V29.0126C86.8479 28.7372 86.7737 28.5243 86.6409 28.3739C86.5081 28.2215 86.3284 28.1454 86.1018 28.1454ZM90.259 26.9911V27.7587H90.8508V28.1776H90.259V30.1434C90.259 30.2704 90.2854 30.3661 90.3381 30.4305C90.3909 30.493 90.4807 30.5243 90.6077 30.5243C90.6702 30.5243 90.7561 30.5126 90.8655 30.4891V30.9286C90.7229 30.9676 90.5842 30.9872 90.4495 30.9872C90.2073 30.9872 90.0247 30.9139 89.9016 30.7674C89.7786 30.621 89.717 30.4129 89.717 30.1434V28.1776H89.1399V27.7587H89.717V26.9911H90.259ZM91.2844 29.3143C91.2844 29.0038 91.345 28.7245 91.4661 28.4764C91.5891 28.2284 91.759 28.037 91.9758 27.9022C92.1946 27.7674 92.4436 27.7001 92.7229 27.7001C93.1545 27.7001 93.5032 27.8495 93.7688 28.1483C94.0364 28.4471 94.1702 28.8446 94.1702 29.3407V29.3788C94.1702 29.6874 94.1106 29.9647 93.9915 30.2108C93.8743 30.4549 93.7053 30.6454 93.4846 30.7821C93.2659 30.9188 93.0139 30.9872 92.7288 30.9872C92.2991 30.9872 91.9504 30.8378 91.6829 30.5389C91.4172 30.2401 91.2844 29.8446 91.2844 29.3524V29.3143ZM91.8293 29.3788C91.8293 29.7303 91.9104 30.0126 92.0725 30.2254C92.2366 30.4383 92.4553 30.5448 92.7288 30.5448C93.0042 30.5448 93.2229 30.4374 93.385 30.2225C93.5471 30.0057 93.6282 29.703 93.6282 29.3143C93.6282 28.9667 93.5452 28.6854 93.3792 28.4706C93.2151 28.2538 92.9963 28.1454 92.7229 28.1454C92.4553 28.1454 92.2395 28.2518 92.0754 28.4647C91.9114 28.6776 91.8293 28.9823 91.8293 29.3788ZM96.4231 30.9286V26.6629H97.8176C98.2805 26.6629 98.6282 26.7587 98.8606 26.9501C99.095 27.1415 99.2122 27.4247 99.2122 27.7997C99.2122 27.9989 99.1555 28.1756 99.0422 28.3299C98.929 28.4823 98.7747 28.6004 98.5793 28.6844C98.8098 28.7489 98.9915 28.8719 99.1243 29.0536C99.259 29.2333 99.3264 29.4481 99.3264 29.6981C99.3264 30.0809 99.2024 30.3817 98.9543 30.6004C98.7063 30.8192 98.3557 30.9286 97.9026 30.9286H96.4231ZM96.9856 28.9335V30.4686H97.9143C98.176 30.4686 98.3821 30.4012 98.5325 30.2665C98.6848 30.1297 98.761 29.9422 98.761 29.704C98.761 29.1903 98.4817 28.9335 97.9231 28.9335H96.9856ZM96.9856 28.4823H97.8352C98.0813 28.4823 98.2776 28.4208 98.4241 28.2977C98.5725 28.1747 98.6467 28.0077 98.6467 27.7967C98.6467 27.5624 98.5784 27.3924 98.4417 27.287C98.3049 27.1796 98.0969 27.1258 97.8176 27.1258H96.9856V28.4823ZM101.609 28.245C101.527 28.2313 101.438 28.2245 101.342 28.2245C100.987 28.2245 100.745 28.3758 100.618 28.6786V30.9286H100.076V27.7587H100.604L100.613 28.1249C100.79 27.8417 101.042 27.7001 101.368 27.7001C101.474 27.7001 101.554 27.7137 101.609 27.7411V28.245ZM103.949 30.9286C103.918 30.8661 103.893 30.7547 103.873 30.5946C103.621 30.8563 103.321 30.9872 102.971 30.9872C102.658 30.9872 102.402 30.8993 102.2 30.7235C102.001 30.5458 101.902 30.3212 101.902 30.0497C101.902 29.7196 102.027 29.4637 102.277 29.2821C102.529 29.0985 102.882 29.0067 103.337 29.0067H103.865V28.7577C103.865 28.5682 103.808 28.4178 103.695 28.3065C103.581 28.1932 103.414 28.1366 103.194 28.1366C103 28.1366 102.838 28.1854 102.707 28.2831C102.576 28.3807 102.511 28.4989 102.511 28.6376H101.966C101.966 28.4794 102.022 28.327 102.133 28.1805C102.246 28.0321 102.399 27.9149 102.59 27.829C102.783 27.743 102.995 27.7001 103.226 27.7001C103.591 27.7001 103.877 27.7919 104.084 27.9754C104.291 28.1571 104.399 28.4081 104.406 28.7284V30.1874C104.406 30.4784 104.444 30.7098 104.518 30.8817V30.9286H103.949ZM103.05 30.5155C103.22 30.5155 103.381 30.4715 103.533 30.3837C103.686 30.2958 103.796 30.1815 103.865 30.0409V29.3905H103.44C102.776 29.3905 102.444 29.5848 102.444 29.9735C102.444 30.1434 102.5 30.2762 102.614 30.3719C102.727 30.4676 102.872 30.5155 103.05 30.5155ZM106.528 30.5448C106.721 30.5448 106.89 30.4862 107.034 30.369C107.179 30.2518 107.259 30.1053 107.275 29.9296H107.787C107.778 30.1112 107.715 30.284 107.6 30.4481C107.485 30.6122 107.33 30.743 107.137 30.8407C106.946 30.9383 106.742 30.9872 106.528 30.9872C106.096 30.9872 105.752 30.8436 105.496 30.5565C105.242 30.2674 105.115 29.8729 105.115 29.3729V29.2821C105.115 28.9735 105.172 28.6991 105.285 28.4588C105.399 28.2186 105.561 28.0321 105.772 27.8993C105.985 27.7665 106.236 27.7001 106.525 27.7001C106.88 27.7001 107.175 27.8065 107.409 28.0194C107.646 28.2323 107.772 28.5087 107.787 28.8485H107.275C107.259 28.6434 107.181 28.4754 107.04 28.3446C106.902 28.2118 106.73 28.1454 106.525 28.1454C106.249 28.1454 106.035 28.245 105.883 28.4442C105.733 28.6415 105.657 28.9276 105.657 29.3026V29.4051C105.657 29.7704 105.733 30.0516 105.883 30.2489C106.033 30.4462 106.248 30.5448 106.528 30.5448ZM109.712 30.9872C109.282 30.9872 108.933 30.8465 108.663 30.5653C108.394 30.2821 108.259 29.9042 108.259 29.4315V29.3319C108.259 29.0174 108.319 28.7372 108.438 28.4911C108.559 28.243 108.727 28.0497 108.942 27.911C109.158 27.7704 109.393 27.7001 109.645 27.7001C110.057 27.7001 110.377 27.8358 110.606 28.1073C110.834 28.3788 110.948 28.7674 110.948 29.2733V29.4989H108.801C108.809 29.8114 108.9 30.0643 109.073 30.2577C109.249 30.4491 109.472 30.5448 109.741 30.5448C109.933 30.5448 110.095 30.5057 110.228 30.4276C110.361 30.3495 110.477 30.246 110.576 30.1171L110.907 30.3749C110.642 30.7831 110.243 30.9872 109.712 30.9872ZM109.645 28.1454C109.426 28.1454 109.242 28.2254 109.094 28.3856C108.946 28.5438 108.854 28.7665 108.819 29.0536H110.406V29.0126C110.391 28.7372 110.317 28.5243 110.184 28.3739C110.051 28.2215 109.871 28.1454 109.645 28.1454ZM113.424 30.0878C113.424 29.9413 113.368 29.828 113.257 29.7479C113.148 29.6659 112.955 29.5956 112.68 29.537C112.406 29.4784 112.189 29.4081 112.027 29.326C111.866 29.244 111.747 29.1463 111.669 29.0331C111.593 28.9198 111.555 28.785 111.555 28.6288C111.555 28.369 111.664 28.1493 111.883 27.9696C112.104 27.7899 112.385 27.7001 112.727 27.7001C113.086 27.7001 113.377 27.7928 113.6 27.9784C113.824 28.1639 113.937 28.4012 113.937 28.6903H113.392C113.392 28.5419 113.328 28.4139 113.201 28.3065C113.076 28.1991 112.918 28.1454 112.727 28.1454C112.53 28.1454 112.375 28.1883 112.264 28.2743C112.153 28.3602 112.097 28.4725 112.097 28.6112C112.097 28.7421 112.149 28.8407 112.252 28.9071C112.356 28.9735 112.542 29.037 112.812 29.0975C113.083 29.1581 113.303 29.2303 113.471 29.3143C113.639 29.3983 113.763 29.4999 113.843 29.619C113.925 29.7362 113.966 29.8797 113.966 30.0497C113.966 30.3329 113.853 30.5604 113.626 30.7323C113.4 30.9022 113.106 30.9872 112.744 30.9872C112.49 30.9872 112.266 30.9422 112.071 30.8524C111.875 30.7626 111.722 30.6376 111.611 30.4774C111.501 30.3153 111.447 30.1405 111.447 29.953H111.989C111.998 30.1346 112.071 30.2792 112.205 30.3866C112.342 30.4921 112.522 30.5448 112.744 30.5448C112.949 30.5448 113.114 30.5038 113.237 30.4217C113.362 30.3378 113.424 30.2264 113.424 30.0878Z" fill="black"/>
</svg>
