<svg width="48" height="48" viewBox="0 0 48 48" fill="none" xmlns="http://www.w3.org/2000/svg">
<path d="M0 48H48V0H0V48Z" fill="black"/>
<path d="M17.1779 15.1831V17.5532H17.7218C18.4082 17.5532 18.7196 17.2205 18.7196 16.2896V16.1439H19.5185V19.8224H18.7196V19.6654C18.7196 18.742 18.4082 18.3906 17.7218 18.3906H17.1779V21.0411H19.4585C20.4975 21.0411 20.8725 20.357 20.9963 19.0486H21.8253V21.886H14.3348V21.0411H14.9687C15.3625 21.0411 15.5726 20.9327 15.5726 20.2486V15.8261C15.5726 15.3326 15.3475 15.1831 14.8187 15.1831H14.5861C14.0422 15.1831 13.7834 15.3102 13.5922 15.8747L11.5254 21.886H9.95382L8.75728 17.9682H8.73481L7.40702 21.886H5.81665L3.67118 15.5868C3.57734 15.2766 3.41611 15.1831 2.98102 15.1831H2.82349V14.342H6.13174V15.1831H5.65161C5.4003 15.1831 5.29904 15.3326 5.29904 15.4822C5.29904 15.5943 5.34031 15.7364 5.4003 15.8934L6.83314 20.1028H6.85561L8.22092 16.1439L8.02963 15.6055C7.91334 15.2691 7.68456 15.1831 7.35073 15.1831H7.08067V14.342H10.4977V15.1831H9.8938C9.66124 15.1831 9.57124 15.284 9.57124 15.4336C9.57124 15.5495 9.6275 15.7102 9.66505 15.8186L10.9178 20.028H10.9403L12.3956 15.9158C12.4407 15.7812 12.4819 15.6691 12.4819 15.527C12.4819 15.3476 12.3956 15.1831 11.9942 15.1831H11.4429V14.342H21.8252V16.9214H20.9738C20.8012 15.8298 20.7037 15.1831 19.1846 15.1831H17.1779ZM29.6195 21.886V19.0486H28.7456C28.6293 20.3458 28.3929 21.0411 27.2077 21.0411H25.4861V15.7065C25.4861 15.2878 25.6586 15.1831 26.1613 15.1831H26.8026V14.342H22.6204V15.1831H23.2806C23.7382 15.1831 23.892 15.3326 23.892 15.6766V20.5364C23.892 20.9327 23.6744 21.0411 23.3518 21.0411H22.6204V21.886H29.6195ZM37.3875 21.886V19.0486H36.51C36.3934 20.3458 36.1498 21.0411 34.9795 21.0411H33.254V15.7065C33.254 15.2878 33.4267 15.1831 33.9293 15.1831H34.567V14.342H30.381V15.1831H31.0448C31.5063 15.1831 31.6601 15.3326 31.6601 15.6766V20.5364C31.6601 20.9327 31.4387 21.0411 31.1199 21.0411H30.381V21.886H37.3875ZM43.1488 14.9102C43.0776 14.8392 42.3801 14.1176 41.0184 14.1176C39.5894 14.1176 38.1453 14.8392 38.1453 16.3868C38.1453 17.7887 39.2667 18.428 40.557 18.7046C40.9847 18.7944 41.2398 18.843 41.6297 18.9252C42.5975 19.1308 43.2425 19.4224 43.2425 20.0916C43.2425 20.6 42.7024 21.1458 41.6336 21.1458C40.1406 21.1458 39.2553 20.3159 39.0718 19.0486H38.194V21.886H38.9705L39.2217 21.2093C39.4055 21.3701 40.1331 22.1103 41.5173 22.1103C43.2801 22.1103 44.6117 21.329 44.6117 19.785C44.6117 18.2897 43.3702 17.6467 41.8547 17.3439C41.5846 17.2766 41.3371 17.2355 41.0595 17.1719C40.1181 16.97 39.5143 16.7382 39.5143 16.0654C39.5143 15.4822 40.1331 15.0822 41.0634 15.0822C42.4624 15.0822 43.0025 15.9681 43.2915 16.9214H44.1428V14.342H43.5276L43.1488 14.9102ZM8.40846 33.647V32.7982H7.83833C7.30945 32.7982 7.11443 32.6413 7.11443 32.215V30.159H7.58329C8.2922 30.159 8.59975 30.4656 8.59975 31.2656V31.5159H9.39493V28.0432H8.59975V28.1926C8.59975 28.7797 8.38596 29.318 7.65079 29.318H7.11443V26.9403H8.60351C10.2801 26.9403 10.4564 27.7815 10.5689 28.6749H11.3866V26.0991H4.2225V26.9403H4.9802C5.32151 26.9403 5.5128 27.0935 5.5128 27.3664V32.2413C5.5128 32.559 5.34025 32.7982 4.93517 32.7982H4.2225V33.647H8.40846ZM40.107 25.8711C37.6239 25.8711 35.981 27.602 35.981 29.8713C35.981 32.1366 37.6239 33.8824 40.107 33.8824C42.5825 33.8824 44.229 32.1366 44.229 29.8713C44.229 27.602 42.5825 25.8711 40.107 25.8711ZM40.107 26.7608C41.8997 26.7608 42.4362 28.245 42.4362 29.8713C42.4362 31.4973 41.8997 32.9853 40.107 32.9853C38.3028 32.9853 37.7702 31.4973 37.7702 29.8713C37.7702 28.245 38.3028 26.7608 40.107 26.7608ZM33.1227 26.716C32.9578 26.5702 32.2488 25.8711 30.8499 25.8711C28.6104 25.8711 27.204 27.5721 27.204 29.8713C27.204 32.1889 28.633 33.8824 30.8499 33.8824C32.2753 33.8824 33.0479 33.232 33.2242 33.0713L33.6481 33.647H34.4243V31.03C34.4243 30.5851 34.5895 30.4656 35.032 30.4656H35.242V29.6207H31.7463V30.4656H32.2639C32.6391 30.4656 32.8677 30.6339 32.8677 31V31.4413C32.8677 32.3048 32.3351 32.9066 31.1761 32.9066C29.7246 32.9066 28.997 31.6057 28.997 29.8713C28.997 28.1626 29.7246 26.8543 31.1311 26.8543C32.5976 26.8543 33.0966 28.215 33.2654 28.6749H34.2029V26.0992H33.4042L33.1227 26.716ZM26.8251 31.8749V32.0806C26.8251 33.3815 26.2025 33.8824 25.2573 33.8824C24.1508 33.8824 23.7795 33.3515 23.7795 32.3237V31.9309C23.7795 30.6339 23.2243 30.1105 21.9566 30.1105H21.3564V32.3907C21.3564 32.6937 21.4952 32.7982 21.8253 32.7982H22.658V33.647H15.0962V32.7982H15.9364C16.169 32.7982 16.2552 32.7422 16.2552 32.6075C16.2552 32.5366 16.2328 32.4207 16.1877 32.2973C16.1465 32.1964 15.7902 31.2246 15.7902 31.2246H13.0896C13.0896 31.2246 12.7557 32.1216 12.6995 32.2713C12.6619 32.3833 12.632 32.4767 12.632 32.5853C12.632 32.7458 12.767 32.7982 12.992 32.7982H13.7947V33.647H10.2314V32.7982C10.8353 32.7982 11.2179 32.7123 11.4317 32.1853L13.8472 26.0992H15.2988L17.7744 32.1853C17.9807 32.7198 18.3708 32.7982 18.9747 32.7982H19.2822C19.6085 32.7982 19.7548 32.6937 19.7548 32.3907V27.3515C19.7548 27.0487 19.6385 26.9403 19.2822 26.9403H18.487V26.0992H23.4606C25.111 26.0992 25.8875 26.8767 25.8875 28.0543C25.8875 29.5159 24.4284 29.8039 23.7457 29.8414V29.8599C24.5447 29.9198 25.2198 30.2488 25.2198 31.4114V31.8524C25.2198 32.6264 25.3848 32.7982 25.6587 32.7982C25.9287 32.7982 26.0713 32.5853 26.0713 32.0806V31.8749H26.8251ZM15.4788 30.3872L14.4586 27.6393H14.4249L13.4046 30.3872H15.4788ZM24.2971 28.103C24.2971 27.4412 23.8207 26.9403 22.763 26.9403H21.3564V29.2692H22.763C23.7382 29.2692 24.2971 28.8318 24.2971 28.103Z" fill="white"/>
</svg>
