<svg width="341" viewBox="0 0 650 141" fill="none" xmlns="http://www.w3.org/2000/svg">
<path d="M10.8125 60.9375C8.4375 59.9792 6.625 58.7292 5.375 57.1875C4.125 55.6042 3.27083 53.9792 2.8125 52.3125C2.35417 50.6042 2.20833 48.9583 2.375 47.375C2.54167 45.7917 2.85417 44.5208 3.3125 43.5625C3.77083 42.5625 4.29167 42.0208 4.875 41.9375C5.5 41.8125 6.02083 42.3542 6.4375 43.5625C5.97917 46.1875 5.97917 48.4792 6.4375 50.4375C6.89583 52.3542 7.64583 53.9583 8.6875 55.25C9.72917 56.5 11 57.4375 12.5 58.0625C14 58.6458 15.5417 58.9583 17.125 59C18.7083 59 20.25 58.7083 21.75 58.125C23.25 57.5417 24.5417 56.7083 25.625 55.625C26.7083 54.5 27.5 53.1042 28 51.4375C28.5 49.7708 28.5417 47.875 28.125 45.75C27.9167 44.7917 27.3542 43.625 26.4375 42.25C25.5625 40.8333 24.5417 39.3333 23.375 37.75C22.25 36.1667 21.0833 34.5625 19.875 32.9375C18.6667 31.2708 17.6458 29.6875 16.8125 28.1875C16.0208 26.6458 15.5 25.25 15.25 24C15.0417 22.7083 15.3542 21.6458 16.1875 20.8125C16.8542 20.2708 17.8333 19.4583 19.125 18.375C20.4583 17.25 21.8958 16.1458 23.4375 15.0625C24.9792 13.9792 26.5417 13.0417 28.125 12.25C29.75 11.4167 31.2083 11 32.5 11C33.4583 11 33.9583 11.1458 34 11.4375C34.0833 11.7292 33.875 12.125 33.375 12.625C32.875 13.0833 32.1458 13.6458 31.1875 14.3125C30.2708 14.9792 29.2708 15.7083 28.1875 16.5C27.1042 17.25 26 18.0625 24.875 18.9375C23.7917 19.7708 22.8542 20.625 22.0625 21.5C21.3125 22.3333 20.75 23.1667 20.375 24C20.0417 24.7917 20.0833 25.5417 20.5 26.25C22 28.375 23.5 30.5208 25 32.6875C26.5417 34.8542 27.875 37 29 39.125C30.125 41.2083 30.9583 43.2708 31.5 45.3125C32.0833 47.3125 32.1667 49.25 31.75 51.125C31.3333 52.9583 30.3125 54.7083 28.6875 56.375C27.1042 58.0417 24.75 59.5625 21.625 60.9375C19.75 61.7292 17.9375 62.1042 16.1875 62.0625C14.4792 62.0208 12.6875 61.6458 10.8125 60.9375ZM36.1875 67.8125C36.0208 67.5208 36.0208 67.1875 36.1875 66.8125C36.3542 66.4792 36.5625 66.1458 36.8125 65.8125C37.1042 65.5208 37.3958 65.25 37.6875 65C38.0208 64.7917 38.25 64.6458 38.375 64.5625L54.625 58.125L55.75 57C55.7083 56.2917 55.6667 55.2083 55.625 53.75C55.625 52.25 55.625 50.5833 55.625 48.75V37.0625C55.625 35.1875 55.625 33.5208 55.625 32.0625C55.6667 30.6042 55.7083 29.5208 55.75 28.8125C55.75 28.5625 55.7917 28.125 55.875 27.5C56 26.875 56.1042 26.2083 56.1875 25.5C56.3125 24.7917 56.4167 24.1458 56.5 23.5625C56.625 22.9375 56.7292 22.5 56.8125 22.25H42.75C42.2083 22.25 41.8542 22.1042 41.6875 21.8125C41.5625 21.5208 41.5417 21.1875 41.625 20.8125C41.7083 20.4375 41.8542 20.0833 42.0625 19.75C42.3125 19.375 42.5417 19.125 42.75 19C47.8333 19.375 52.875 19 57.875 17.875C58.75 15.875 59.9583 14.3333 61.5 13.25C63.0417 12.1667 64.75 11.4375 66.625 11.0625C68.5 10.6875 70.4375 10.625 72.4375 10.875C74.4792 11.0833 76.375 11.4792 78.125 12.0625C79.9167 12.6458 81.4792 13.3542 82.8125 14.1875C84.1875 15.0208 85.1458 15.875 85.6875 16.75C86.2292 17.5833 86.2917 18.375 85.875 19.125C85.4583 19.8333 84.3542 20.3958 82.5625 20.8125C80.8125 21.1875 78.2917 21.3542 75 21.3125C71.7083 21.2292 67.4583 20.8125 62.25 20.0625C61.2083 21.5625 60.3958 23.2708 59.8125 25.1875C59.2708 27.1042 58.8958 29.125 58.6875 31.25C58.5208 33.375 58.4792 35.5625 58.5625 37.8125C58.6875 40.0208 58.875 42.2083 59.125 44.375C59.4167 46.5 59.75 48.5625 60.125 50.5625C60.5 52.5208 60.8542 54.3125 61.1875 55.9375C62.4375 56.1875 63.6875 56.2292 64.9375 56.0625C66.2292 55.8542 67.5 55.5417 68.75 55.125C70.0417 54.7083 71.3125 54.25 72.5625 53.75C73.8125 53.2083 75.0625 52.7292 76.3125 52.3125C77.6042 51.8958 78.875 51.6042 80.125 51.4375C81.375 51.2292 82.6458 51.2708 83.9375 51.5625C84.1458 52.1042 84.1875 52.7292 84.0625 53.4375C83.9375 54.1458 83.5417 54.6042 82.875 54.8125C79.5 55.4375 75.8333 56.1875 71.875 57.0625C67.9583 57.8958 63.9583 58.8958 59.875 60.0625C55.8333 61.2292 51.875 62.5417 48 64C44.125 65.4583 40.5625 67.1042 37.3125 68.9375L36.1875 67.8125ZM62.25 16.8125C66.9167 17.6875 70.625 18.2292 73.375 18.4375C76.1667 18.6458 78.2083 18.6667 79.5 18.5C80.7917 18.2917 81.4583 17.9583 81.5 17.5C81.5417 17 81.1458 16.5 80.3125 16C79.4792 15.5 78.3333 15.0625 76.875 14.6875C75.4167 14.2708 73.8333 14.0417 72.125 14C70.4167 13.9167 68.6875 14.0833 66.9375 14.5C65.1875 14.9167 63.625 15.6875 62.25 16.8125ZM91.5625 60.9375C89.9375 59.7292 88.8542 58.2917 88.3125 56.625C87.8125 54.9583 87.4375 53.1458 87.1875 51.1875C87.2708 50.6042 87.375 49.6875 87.5 48.4375C87.625 47.1875 87.7708 45.7917 87.9375 44.25C88.1042 42.6667 88.25 41 88.375 39.25C88.5417 37.5 88.6875 35.8542 88.8125 34.3125C88.9792 32.7292 89.1042 31.3125 89.1875 30.0625C89.2708 28.8125 89.3333 27.8958 89.375 27.3125C89.4167 26.9792 89.4375 26.3958 89.4375 25.5625V20.375C89.4375 19.5417 89.4167 18.9583 89.375 18.625L90.5 17.5L110 11H112.188C112.396 11.5833 112.417 12.2083 112.25 12.875C112.125 13.5417 111.729 14 111.062 14.25L94.8125 20.8125L93.75 21.875C93.7083 21.9167 93.6458 22.3542 93.5625 23.1875C93.4792 24.0208 93.375 25.0208 93.25 26.1875C93.125 27.3125 93 28.4792 92.875 29.6875C92.75 30.8958 92.6667 31.8958 92.625 32.6875C92.625 32.8958 92.6042 33.2708 92.5625 33.8125C92.5625 34.3125 92.5625 34.8542 92.5625 35.4375C92.5625 35.9792 92.5625 36.5208 92.5625 37.0625C92.6042 37.5625 92.625 37.9167 92.625 38.125L111.062 28.375C111.354 28.2083 111.562 28.25 111.688 28.5C111.854 28.75 111.938 29.0833 111.938 29.5C111.938 29.9167 111.854 30.3333 111.688 30.75C111.562 31.1667 111.354 31.4583 111.062 31.625C110.354 32.0833 109.479 32.6042 108.438 33.1875C107.438 33.7708 106.375 34.3958 105.25 35.0625C104.167 35.6875 103.062 36.3125 101.938 36.9375C100.854 37.5625 99.875 38.125 99 38.625C98.125 39.125 97.3958 39.5417 96.8125 39.875C96.2708 40.1667 95.9792 40.3125 95.9375 40.3125H91.5625V54.375C91.5625 56.2917 91.9792 57.5208 92.8125 58.0625C93.6875 58.6042 94.7708 58.7292 96.0625 58.4375C97.3958 58.1042 98.8333 57.4792 100.375 56.5625C101.917 55.6458 103.354 54.6667 104.688 53.625C106.062 52.5833 107.229 51.625 108.188 50.75C109.188 49.8333 109.792 49.25 110 49C110.167 47.9583 110.396 47.1042 110.688 46.4375C110.938 45.8542 111.271 45.4375 111.688 45.1875C112.104 44.9375 112.625 45.125 113.25 45.75C113.5 47.0417 113.292 48.4375 112.625 49.9375C112 51.4375 111.083 52.8958 109.875 54.3125C108.667 55.7292 107.229 57.0417 105.562 58.25C103.938 59.4167 102.271 60.3542 100.562 61.0625C98.8958 61.7292 97.2708 62.0833 95.6875 62.125C94.1042 62.2083 92.7292 61.8125 91.5625 60.9375ZM166.375 60.9375C164.958 60.3958 163.75 59.5417 162.75 58.375C161.792 57.1667 160.958 55.8542 160.25 54.4375C159.583 52.9792 159.042 51.4792 158.625 49.9375C158.25 48.3958 157.938 47 157.688 45.75C157.562 45.0833 157.396 44.0417 157.188 42.625C157.021 41.1667 156.812 39.5625 156.562 37.8125C156.354 36.0208 156.125 34.1458 155.875 32.1875C155.667 30.1875 155.458 28.3125 155.25 26.5625L154.688 21.75C154.521 20.3333 154.417 19.2917 154.375 18.625L146.875 49L146.5 49.6875C146.333 50.0625 146.083 50.4792 145.75 50.9375C145.458 51.3542 145.125 51.7708 144.75 52.1875C144.375 52.6042 143.979 52.9167 143.562 53.125C143.188 53.2917 142.812 53.3333 142.438 53.25C142.062 53.1667 141.729 52.8125 141.438 52.1875L125.125 19.6875L120.812 52.1875C120.729 52.7708 120.5 53.1458 120.125 53.3125C119.75 53.4375 119.354 53.4375 118.938 53.3125C118.562 53.1458 118.208 52.875 117.875 52.5C117.583 52.125 117.479 51.6875 117.562 51.1875L123 11C123 10.8333 123.146 10.625 123.438 10.375C123.729 10.125 124.062 9.91667 124.438 9.75C124.812 9.58333 125.167 9.5 125.5 9.5C125.875 9.45833 126.125 9.58333 126.25 9.875L143.312 47.8125L153.312 9.875C153.354 9.75 153.583 9.4375 154 8.9375C154.417 8.39583 154.875 7.89583 155.375 7.4375C155.875 6.97917 156.354 6.64583 156.812 6.4375C157.271 6.1875 157.562 6.27083 157.688 6.6875L158.75 11C158.875 13.8333 158.979 17.125 159.062 20.875C159.146 24.625 159.375 28.4792 159.75 32.4375C160.125 36.3958 160.729 40.2917 161.562 44.125C162.396 47.9583 163.646 51.375 165.312 54.375C165.438 54.5833 165.646 54.875 165.938 55.25C166.229 55.5833 166.542 55.9167 166.875 56.25C167.208 56.5833 167.542 56.8958 167.875 57.1875C168.208 57.4375 168.438 57.5833 168.562 57.625C168.979 57.7917 169.542 57.8125 170.25 57.6875C170.958 57.5625 171.688 57.4792 172.438 57.4375C173.188 57.3542 173.896 57.3958 174.562 57.5625C175.271 57.6875 175.792 58.0833 176.125 58.75C176.458 59.4167 176.479 59.9583 176.188 60.375C175.938 60.75 175.5 61.0417 174.875 61.25C174.25 61.4583 173.521 61.5833 172.688 61.625C171.854 61.6667 171.021 61.6667 170.188 61.625C169.354 61.5417 168.583 61.4375 167.875 61.3125C167.167 61.1875 166.667 61.0625 166.375 60.9375ZM193.5 43.5625C193.208 43.8125 192.729 44.2292 192.062 44.8125C191.438 45.3542 190.708 45.9167 189.875 46.5C189.083 47.0417 188.229 47.4792 187.312 47.8125C186.438 48.1458 185.604 48.1875 184.812 47.9375C184.479 47.8125 184.208 47.625 184 47.375C183.833 47.125 183.708 46.8542 183.625 46.5625C183.583 46.2292 183.562 45.8958 183.562 45.5625C183.604 45.2292 183.667 44.9167 183.75 44.625L195.125 38.125V19.6875C195.125 19.3125 195.354 19.0417 195.812 18.875C196.271 18.6667 196.771 18.5625 197.312 18.5625C197.854 18.5625 198.354 18.6667 198.812 18.875C199.271 19.0417 199.5 19.3125 199.5 19.6875V34.875C201.25 33.9583 202.958 32.8333 204.625 31.5C206.333 30.125 207.792 28.7083 209 27.25C210.25 25.75 211.146 24.2917 211.688 22.875C212.229 21.4583 212.229 20.2292 211.688 19.1875C211.146 18.1042 209.938 17.3125 208.062 16.8125C206.229 16.2708 203.542 16.1458 200 16.4375C199.25 16.5208 198.292 16.75 197.125 17.125C195.958 17.5 194.688 17.9583 193.312 18.5C191.938 19.0417 190.521 19.6042 189.062 20.1875C187.646 20.7708 186.292 21.3125 185 21.8125C183.708 22.2708 182.562 22.625 181.562 22.875C180.562 23.0833 179.833 23.1042 179.375 22.9375C179.5 22.2292 179.792 21.6042 180.25 21.0625C180.708 20.4792 181.25 19.9583 181.875 19.5C182.542 19.0417 183.229 18.6458 183.938 18.3125C184.646 17.9792 185.312 17.7083 185.938 17.5C188.479 16.6667 190.667 15.9583 192.5 15.375C194.333 14.7917 196.125 14.3542 197.875 14.0625C199.667 13.7708 201.562 13.6458 203.562 13.6875C205.562 13.6875 208 13.875 210.875 14.25C213.208 14.8333 214.812 15.625 215.688 16.625C216.604 17.625 217 18.75 216.875 20C216.75 21.25 216.229 22.5833 215.312 24C214.396 25.375 213.271 26.7708 211.938 28.1875C210.646 29.5625 209.229 30.9167 207.688 32.25C206.188 33.5833 204.792 34.7917 203.5 35.875C202.208 36.9583 201.125 37.8958 200.25 38.6875C199.417 39.4792 198.979 40.0208 198.938 40.3125L196.75 59.8125L196.375 60.3125C196.167 60.6042 195.896 60.9167 195.562 61.25C195.271 61.5417 194.917 61.7917 194.5 62C194.125 62.2083 193.792 62.2083 193.5 62V43.5625ZM229.812 60.9375C229.771 60.1875 229.708 59.0625 229.625 57.5625C229.583 56.0208 229.521 54.2917 229.438 52.375C229.396 50.4167 229.333 48.375 229.25 46.25C229.167 44.125 229.083 42.1042 229 40.1875C228.958 38.2708 228.917 36.5625 228.875 35.0625C228.833 33.5208 228.812 32.375 228.812 31.625C228.812 31.375 228.792 30.9583 228.75 30.375C228.75 29.75 228.75 29.1042 228.75 28.4375C228.75 27.7292 228.75 27.0625 228.75 26.4375C228.792 25.8125 228.812 25.375 228.812 25.125C228.312 25.375 227.708 25.8125 227 26.4375C226.333 27.0625 225.604 27.75 224.812 28.5C224.021 29.2083 223.208 29.875 222.375 30.5C221.583 31.0833 220.833 31.4583 220.125 31.625C219.167 31.0417 218.729 30.3333 218.812 29.5C218.896 28.625 219.354 27.7083 220.188 26.75C221.062 25.75 222.208 24.7292 223.625 23.6875C225.083 22.6458 226.667 21.6458 228.375 20.6875C230.125 19.7292 231.917 18.8542 233.75 18.0625C235.583 17.2708 237.312 16.625 238.938 16.125C240.604 15.5833 242.062 15.25 243.312 15.125C244.604 14.9583 245.562 15.0417 246.188 15.375C247.354 16.5833 247.917 18.0833 247.875 19.875C247.833 21.6667 247.438 23.5833 246.688 25.625C245.938 27.6667 244.958 29.7917 243.75 32C242.542 34.2083 241.375 36.3542 240.25 38.4375C239.125 40.4792 238.167 42.4167 237.375 44.25C236.583 46.0417 236.208 47.5833 236.25 48.875C236.292 50.1667 236.896 51.125 238.062 51.75C239.229 52.375 241.208 52.5208 244 52.1875C245.417 51.8542 246.896 51.3333 248.438 50.625C249.979 49.875 251.479 49.0625 252.938 48.1875C254.396 47.2708 255.75 46.3125 257 45.3125C258.292 44.3125 259.375 43.375 260.25 42.5C261.708 42.875 262.521 43.4167 262.688 44.125C262.854 44.8333 262.562 45.625 261.812 46.5C261.104 47.375 260.021 48.2917 258.562 49.25C257.104 50.2083 255.458 51.1458 253.625 52.0625C251.792 52.9375 249.875 53.7292 247.875 54.4375C245.917 55.1458 244.021 55.6875 242.188 56.0625C240.396 56.4375 238.771 56.6042 237.312 56.5625C235.896 56.5208 234.854 56.1667 234.188 55.5C234.188 55.75 234.167 56.1875 234.125 56.8125C234.083 57.4375 234 58.1042 233.875 58.8125C233.75 59.4792 233.542 60.125 233.25 60.75C232.958 61.3333 232.542 61.75 232 62C231.542 62.2083 231.104 62.1667 230.688 61.875C230.312 61.5833 230.021 61.2708 229.812 60.9375ZM233.125 47.1875L244.625 21.5C244.333 20.5417 243.833 19.875 243.125 19.5C242.458 19.0833 241.688 18.8958 240.812 18.9375C239.938 18.9375 239.042 19.125 238.125 19.5C237.208 19.875 236.354 20.3333 235.562 20.875C234.812 21.375 234.188 21.9375 233.688 22.5625C233.188 23.1458 232.938 23.6875 232.938 24.1875L233.125 47.1875ZM268.375 60.9375C266.75 59.7292 265.667 58.2917 265.125 56.625C264.625 54.9583 264.25 53.1458 264 51.1875C264.083 50.6042 264.188 49.6875 264.312 48.4375C264.438 47.1875 264.583 45.7917 264.75 44.25C264.917 42.6667 265.062 41 265.188 39.25C265.354 37.5 265.5 35.8542 265.625 34.3125C265.792 32.7292 265.917 31.3125 266 30.0625C266.083 28.8125 266.146 27.8958 266.188 27.3125C266.229 26.9792 266.25 26.3958 266.25 25.5625V20.375C266.25 19.5417 266.229 18.9583 266.188 18.625L267.312 17.5L286.812 11H289C289.208 11.5833 289.229 12.2083 289.062 12.875C288.938 13.5417 288.542 14 287.875 14.25L271.625 20.8125L270.562 21.875C270.521 21.9167 270.458 22.3542 270.375 23.1875C270.292 24.0208 270.188 25.0208 270.062 26.1875C269.938 27.3125 269.812 28.4792 269.688 29.6875C269.562 30.8958 269.479 31.8958 269.438 32.6875C269.438 32.8958 269.417 33.2708 269.375 33.8125C269.375 34.3125 269.375 34.8542 269.375 35.4375C269.375 35.9792 269.375 36.5208 269.375 37.0625C269.417 37.5625 269.438 37.9167 269.438 38.125L287.875 28.375C288.167 28.2083 288.375 28.25 288.5 28.5C288.667 28.75 288.75 29.0833 288.75 29.5C288.75 29.9167 288.667 30.3333 288.5 30.75C288.375 31.1667 288.167 31.4583 287.875 31.625C287.167 32.0833 286.292 32.6042 285.25 33.1875C284.25 33.7708 283.188 34.3958 282.062 35.0625C280.979 35.6875 279.875 36.3125 278.75 36.9375C277.667 37.5625 276.688 38.125 275.812 38.625C274.938 39.125 274.208 39.5417 273.625 39.875C273.083 40.1667 272.792 40.3125 272.75 40.3125H268.375V54.375C268.375 56.2917 268.792 57.5208 269.625 58.0625C270.5 58.6042 271.583 58.7292 272.875 58.4375C274.208 58.1042 275.646 57.4792 277.188 56.5625C278.729 55.6458 280.167 54.6667 281.5 53.625C282.875 52.5833 284.042 51.625 285 50.75C286 49.8333 286.604 49.25 286.812 49C286.979 47.9583 287.208 47.1042 287.5 46.4375C287.75 45.8542 288.083 45.4375 288.5 45.1875C288.917 44.9375 289.438 45.125 290.062 45.75C290.312 47.0417 290.104 48.4375 289.438 49.9375C288.812 51.4375 287.896 52.8958 286.688 54.3125C285.479 55.7292 284.042 57.0417 282.375 58.25C280.75 59.4167 279.083 60.3542 277.375 61.0625C275.708 61.7292 274.083 62.0833 272.5 62.125C270.917 62.2083 269.542 61.8125 268.375 60.9375ZM334.562 60.9375C332.188 59.9792 330.375 58.7292 329.125 57.1875C327.875 55.6042 327.021 53.9792 326.562 52.3125C326.104 50.6042 325.958 48.9583 326.125 47.375C326.292 45.7917 326.604 44.5208 327.062 43.5625C327.521 42.5625 328.042 42.0208 328.625 41.9375C329.25 41.8125 329.771 42.3542 330.188 43.5625C329.729 46.1875 329.729 48.4792 330.188 50.4375C330.646 52.3542 331.396 53.9583 332.438 55.25C333.479 56.5 334.75 57.4375 336.25 58.0625C337.75 58.6458 339.292 58.9583 340.875 59C342.458 59 344 58.7083 345.5 58.125C347 57.5417 348.292 56.7083 349.375 55.625C350.458 54.5 351.25 53.1042 351.75 51.4375C352.25 49.7708 352.292 47.875 351.875 45.75C351.667 44.7917 351.104 43.625 350.188 42.25C349.312 40.8333 348.292 39.3333 347.125 37.75C346 36.1667 344.833 34.5625 343.625 32.9375C342.417 31.2708 341.396 29.6875 340.562 28.1875C339.771 26.6458 339.25 25.25 339 24C338.792 22.7083 339.104 21.6458 339.938 20.8125C340.604 20.2708 341.583 19.4583 342.875 18.375C344.208 17.25 345.646 16.1458 347.188 15.0625C348.729 13.9792 350.292 13.0417 351.875 12.25C353.5 11.4167 354.958 11 356.25 11C357.208 11 357.708 11.1458 357.75 11.4375C357.833 11.7292 357.625 12.125 357.125 12.625C356.625 13.0833 355.896 13.6458 354.938 14.3125C354.021 14.9792 353.021 15.7083 351.938 16.5C350.854 17.25 349.75 18.0625 348.625 18.9375C347.542 19.7708 346.604 20.625 345.812 21.5C345.062 22.3333 344.5 23.1667 344.125 24C343.792 24.7917 343.833 25.5417 344.25 26.25C345.75 28.375 347.25 30.5208 348.75 32.6875C350.292 34.8542 351.625 37 352.75 39.125C353.875 41.2083 354.708 43.2708 355.25 45.3125C355.833 47.3125 355.917 49.25 355.5 51.125C355.083 52.9583 354.062 54.7083 352.438 56.375C350.854 58.0417 348.5 59.5625 345.375 60.9375C343.5 61.7292 341.688 62.1042 339.938 62.0625C338.229 62.0208 336.438 61.6458 334.562 60.9375ZM364.875 60.9375C363.25 59.7292 362.167 58.2917 361.625 56.625C361.125 54.9583 360.75 53.1458 360.5 51.1875C360.583 50.6042 360.688 49.6875 360.812 48.4375C360.938 47.1875 361.083 45.7917 361.25 44.25C361.417 42.6667 361.562 41 361.688 39.25C361.854 37.5 362 35.8542 362.125 34.3125C362.292 32.7292 362.417 31.3125 362.5 30.0625C362.583 28.8125 362.646 27.8958 362.688 27.3125C362.729 26.9792 362.75 26.3958 362.75 25.5625V20.375C362.75 19.5417 362.729 18.9583 362.688 18.625L363.812 17.5L383.312 11H385.5C385.708 11.5833 385.729 12.2083 385.562 12.875C385.438 13.5417 385.042 14 384.375 14.25L368.125 20.8125L367.062 21.875C367.021 21.9167 366.958 22.3542 366.875 23.1875C366.792 24.0208 366.688 25.0208 366.562 26.1875C366.438 27.3125 366.312 28.4792 366.188 29.6875C366.062 30.8958 365.979 31.8958 365.938 32.6875C365.938 32.8958 365.917 33.2708 365.875 33.8125C365.875 34.3125 365.875 34.8542 365.875 35.4375C365.875 35.9792 365.875 36.5208 365.875 37.0625C365.917 37.5625 365.938 37.9167 365.938 38.125L384.375 28.375C384.667 28.2083 384.875 28.25 385 28.5C385.167 28.75 385.25 29.0833 385.25 29.5C385.25 29.9167 385.167 30.3333 385 30.75C384.875 31.1667 384.667 31.4583 384.375 31.625C383.667 32.0833 382.792 32.6042 381.75 33.1875C380.75 33.7708 379.688 34.3958 378.562 35.0625C377.479 35.6875 376.375 36.3125 375.25 36.9375C374.167 37.5625 373.188 38.125 372.312 38.625C371.438 39.125 370.708 39.5417 370.125 39.875C369.583 40.1667 369.292 40.3125 369.25 40.3125H364.875V54.375C364.875 56.2917 365.292 57.5208 366.125 58.0625C367 58.6042 368.083 58.7292 369.375 58.4375C370.708 58.1042 372.146 57.4792 373.688 56.5625C375.229 55.6458 376.667 54.6667 378 53.625C379.375 52.5833 380.542 51.625 381.5 50.75C382.5 49.8333 383.104 49.25 383.312 49C383.479 47.9583 383.708 47.1042 384 46.4375C384.25 45.8542 384.583 45.4375 385 45.1875C385.417 44.9375 385.938 45.125 386.562 45.75C386.812 47.0417 386.604 48.4375 385.938 49.9375C385.312 51.4375 384.396 52.8958 383.188 54.3125C381.979 55.7292 380.542 57.0417 378.875 58.25C377.25 59.4167 375.583 60.3542 373.875 61.0625C372.208 61.7292 370.583 62.0833 369 62.125C367.417 62.2083 366.042 61.8125 364.875 60.9375ZM444.062 59.8125C444.146 56.9375 444.104 54.0625 443.938 51.1875C443.812 48.2708 443.646 45.375 443.438 42.5C443.271 39.5833 443.104 36.6875 442.938 33.8125C442.812 30.8958 442.812 28 442.938 25.125C442.479 25.25 441.771 25.4375 440.812 25.6875C439.854 25.8958 438.771 26.1458 437.562 26.4375C436.354 26.7292 435.062 27.0417 433.688 27.375C432.354 27.6667 431.083 27.9583 429.875 28.25C428.667 28.5417 427.583 28.8125 426.625 29.0625C425.667 29.2708 424.958 29.4167 424.5 29.5C423.917 29.625 423.333 29.5625 422.75 29.3125C422.208 29.0208 421.708 28.7083 421.25 28.375L423.438 26.25C430.021 25.625 436.5 24.3542 442.875 22.4375C449.25 20.4792 455.417 18.125 461.375 15.375H464.625C464.833 15.7083 464.833 16.0625 464.625 16.4375C464.458 16.8125 464.208 17.1667 463.875 17.5C463.542 17.7917 463.208 18.0625 462.875 18.3125L462.438 18.625L447.312 24.0625C447.271 24.0625 447.229 24.5625 447.188 25.5625C447.188 26.5625 447.188 27.75 447.188 29.125C447.188 30.5 447.188 31.9375 447.188 33.4375C447.229 34.8958 447.271 36.1042 447.312 37.0625C447.312 37.3958 447.333 38.125 447.375 39.25C447.458 40.375 447.521 41.6875 447.562 43.1875C447.646 44.6458 447.729 46.2083 447.812 47.875C447.896 49.5417 447.979 51.125 448.062 52.625C448.146 54.125 448.208 55.4375 448.25 56.5625C448.292 57.6458 448.333 58.375 448.375 58.75C448.375 59.4583 448.167 60.1042 447.75 60.6875C447.375 61.2708 446.938 61.6667 446.438 61.875C445.938 62.0833 445.438 62.0625 444.938 61.8125C444.479 61.5208 444.188 60.8542 444.062 59.8125ZM477.625 60.9375C477.583 60.1875 477.521 59.0625 477.438 57.5625C477.396 56.0208 477.333 54.2917 477.25 52.375C477.208 50.4167 477.146 48.375 477.062 46.25C476.979 44.125 476.896 42.1042 476.812 40.1875C476.771 38.2708 476.729 36.5625 476.688 35.0625C476.646 33.5208 476.625 32.375 476.625 31.625C476.625 31.375 476.604 30.9583 476.562 30.375C476.562 29.75 476.562 29.1042 476.562 28.4375C476.562 27.7292 476.562 27.0625 476.562 26.4375C476.604 25.8125 476.625 25.375 476.625 25.125C476.125 25.375 475.521 25.8125 474.812 26.4375C474.146 27.0625 473.417 27.75 472.625 28.5C471.833 29.2083 471.021 29.875 470.188 30.5C469.396 31.0833 468.646 31.4583 467.938 31.625C466.979 31.0417 466.542 30.3333 466.625 29.5C466.708 28.625 467.167 27.7083 468 26.75C468.875 25.75 470.021 24.7292 471.438 23.6875C472.896 22.6458 474.479 21.6458 476.188 20.6875C477.938 19.7292 479.729 18.8542 481.562 18.0625C483.396 17.2708 485.125 16.625 486.75 16.125C488.417 15.5833 489.875 15.25 491.125 15.125C492.417 14.9583 493.375 15.0417 494 15.375C495.167 16.5833 495.729 18.0833 495.688 19.875C495.646 21.6667 495.25 23.5833 494.5 25.625C493.75 27.6667 492.771 29.7917 491.562 32C490.354 34.2083 489.188 36.3542 488.062 38.4375C486.938 40.4792 485.979 42.4167 485.188 44.25C484.396 46.0417 484.021 47.5833 484.062 48.875C484.104 50.1667 484.708 51.125 485.875 51.75C487.042 52.375 489.021 52.5208 491.812 52.1875C493.229 51.8542 494.708 51.3333 496.25 50.625C497.792 49.875 499.292 49.0625 500.75 48.1875C502.208 47.2708 503.562 46.3125 504.812 45.3125C506.104 44.3125 507.188 43.375 508.062 42.5C509.521 42.875 510.333 43.4167 510.5 44.125C510.667 44.8333 510.375 45.625 509.625 46.5C508.917 47.375 507.833 48.2917 506.375 49.25C504.917 50.2083 503.271 51.1458 501.438 52.0625C499.604 52.9375 497.688 53.7292 495.688 54.4375C493.729 55.1458 491.833 55.6875 490 56.0625C488.208 56.4375 486.583 56.6042 485.125 56.5625C483.708 56.5208 482.667 56.1667 482 55.5C482 55.75 481.979 56.1875 481.938 56.8125C481.896 57.4375 481.812 58.1042 481.688 58.8125C481.562 59.4792 481.354 60.125 481.062 60.75C480.771 61.3333 480.354 61.75 479.812 62C479.354 62.2083 478.917 62.1667 478.5 61.875C478.125 61.5833 477.833 61.2708 477.625 60.9375ZM480.938 47.1875L492.438 21.5C492.146 20.5417 491.646 19.875 490.938 19.5C490.271 19.0833 489.5 18.8958 488.625 18.9375C487.75 18.9375 486.854 19.125 485.938 19.5C485.021 19.875 484.167 20.3333 483.375 20.875C482.625 21.375 482 21.9375 481.5 22.5625C481 23.1458 480.75 23.6875 480.75 24.1875L480.938 47.1875ZM547.75 50.0625C547.708 49.8542 547.542 49.4792 547.25 48.9375C547 48.3958 546.792 48.0417 546.625 47.875C546.167 47.7083 545.312 47.4375 544.062 47.0625C542.854 46.6458 541.562 46.2083 540.188 45.75C538.812 45.25 537.5 44.7917 536.25 44.375C535.042 43.9583 534.188 43.6667 533.688 43.5C533.562 43.4583 533.292 43.3333 532.875 43.125C532.458 42.875 532 42.625 531.5 42.375C531 42.0833 530.542 41.8333 530.125 41.625C529.708 41.4167 529.438 41.3125 529.312 41.3125C528.521 41.3125 527.771 41.7917 527.062 42.75C526.354 43.7083 525.646 44.8958 524.938 46.3125C524.229 47.7292 523.479 49.25 522.688 50.875C521.896 52.4583 521.021 53.8958 520.062 55.1875C519.104 56.4792 518.042 57.5 516.875 58.25C515.75 58.9583 514.479 59.125 513.062 58.75V56.5625C513.354 56.1875 513.812 55.6042 514.438 54.8125C515.104 54.0208 515.812 53.125 516.562 52.125C517.354 51.125 518.188 50.0833 519.062 49C519.938 47.875 520.75 46.8125 521.5 45.8125C522.292 44.8125 522.979 43.9167 523.562 43.125C524.188 42.3333 524.646 41.7292 524.938 41.3125C525.479 40.6042 525.562 39.625 525.188 38.375C524.854 37.0833 524.333 35.7083 523.625 34.25C522.958 32.7917 522.229 31.3333 521.438 29.875C520.646 28.4167 520.083 27.1667 519.75 26.125C519.417 25.0833 519.438 24.3333 519.812 23.875C520.188 23.4167 521.208 23.4583 522.875 24C523.458 25.75 524.271 27.5417 525.312 29.375C526.354 31.2083 527.688 32.6667 529.312 33.75C530.646 32.875 531.896 31.6875 533.062 30.1875C534.271 28.6875 535.375 27 536.375 25.125C537.417 23.25 538.354 21.2708 539.188 19.1875C540.062 17.0625 540.833 14.9792 541.5 12.9375C542.208 10.8542 542.812 8.89583 543.312 7.0625C543.812 5.22917 544.229 3.64583 544.562 2.3125C544.896 1.72917 545.354 1.27083 545.938 0.9375C546.562 0.604167 547.167 0.333333 547.75 0.125C548.042 0.5 548.229 1.41667 548.312 2.875C548.396 4.33333 548.438 6.125 548.438 8.25C548.438 10.3333 548.396 12.6667 548.312 15.25C548.271 17.7917 548.229 20.375 548.188 23C548.188 25.5833 548.208 28.125 548.25 30.625C548.292 33.0833 548.396 35.2708 548.562 37.1875C548.771 39.0625 549.062 40.5833 549.438 41.75C549.812 42.9167 550.333 43.5 551 43.5H557.562V47.375H552.125C551.375 47.375 551.083 47.8542 551.25 48.8125C551.417 49.7292 551.792 50.9167 552.375 52.375C553 53.8333 553.708 55.4583 554.5 57.25C555.333 59 556.021 60.6875 556.562 62.3125C557.146 63.9375 557.479 65.4167 557.562 66.75C557.646 68.0833 557.271 69.0208 556.438 69.5625C556.271 69.6458 555.896 69.6875 555.312 69.6875C554.771 69.6875 554.417 69.6458 554.25 69.5625C554.042 68.8125 553.625 67.5208 553 65.6875C552.375 63.8542 551.708 61.8958 551 59.8125C550.333 57.7292 549.688 55.7708 549.062 53.9375C548.438 52.1042 548 50.8125 547.75 50.0625ZM536.938 40.25C537.188 40.375 537.646 40.6042 538.312 40.9375C539.021 41.2292 539.771 41.5625 540.562 41.9375C541.396 42.2708 542.188 42.5833 542.938 42.875C543.688 43.1667 544.229 43.375 544.562 43.5C544.646 43.5417 544.812 43.5625 545.062 43.5625C545.312 43.5625 545.479 43.5417 545.562 43.5C545.729 41.7917 545.729 39.6458 545.562 37.0625C545.396 34.4792 545.167 31.8333 544.875 29.125C544.625 26.4167 544.354 23.8333 544.062 21.375C543.771 18.875 543.562 16.875 543.438 15.375L531.5 37.0625C531.667 37.1875 532 37.4167 532.5 37.75C533.042 38.0417 533.583 38.375 534.125 38.75C534.708 39.0833 535.25 39.3958 535.75 39.6875C536.292 39.9792 536.688 40.1667 536.938 40.25ZM581.312 59.8125C581.396 56.9375 581.354 54.0625 581.188 51.1875C581.062 48.2708 580.896 45.375 580.688 42.5C580.521 39.5833 580.354 36.6875 580.188 33.8125C580.062 30.8958 580.062 28 580.188 25.125C579.729 25.25 579.021 25.4375 578.062 25.6875C577.104 25.8958 576.021 26.1458 574.812 26.4375C573.604 26.7292 572.312 27.0417 570.938 27.375C569.604 27.6667 568.333 27.9583 567.125 28.25C565.917 28.5417 564.833 28.8125 563.875 29.0625C562.917 29.2708 562.208 29.4167 561.75 29.5C561.167 29.625 560.583 29.5625 560 29.3125C559.458 29.0208 558.958 28.7083 558.5 28.375L560.688 26.25C567.271 25.625 573.75 24.3542 580.125 22.4375C586.5 20.4792 592.667 18.125 598.625 15.375H601.875C602.083 15.7083 602.083 16.0625 601.875 16.4375C601.708 16.8125 601.458 17.1667 601.125 17.5C600.792 17.7917 600.458 18.0625 600.125 18.3125L599.688 18.625L584.562 24.0625C584.521 24.0625 584.479 24.5625 584.438 25.5625C584.438 26.5625 584.438 27.75 584.438 29.125C584.438 30.5 584.438 31.9375 584.438 33.4375C584.479 34.8958 584.521 36.1042 584.562 37.0625C584.562 37.3958 584.583 38.125 584.625 39.25C584.708 40.375 584.771 41.6875 584.812 43.1875C584.896 44.6458 584.979 46.2083 585.062 47.875C585.146 49.5417 585.229 51.125 585.312 52.625C585.396 54.125 585.458 55.4375 585.5 56.5625C585.542 57.6458 585.583 58.375 585.625 58.75C585.625 59.4583 585.417 60.1042 585 60.6875C584.625 61.2708 584.188 61.6667 583.688 61.875C583.188 62.0833 582.688 62.0625 582.188 61.8125C581.729 61.5208 581.438 60.8542 581.312 59.8125ZM640 50.0625C639.958 49.8542 639.792 49.4792 639.5 48.9375C639.25 48.3958 639.042 48.0417 638.875 47.875C638.417 47.7083 637.562 47.4375 636.312 47.0625C635.104 46.6458 633.812 46.2083 632.438 45.75C631.062 45.25 629.75 44.7917 628.5 44.375C627.292 43.9583 626.438 43.6667 625.938 43.5C625.812 43.4583 625.542 43.3333 625.125 43.125C624.708 42.875 624.25 42.625 623.75 42.375C623.25 42.0833 622.792 41.8333 622.375 41.625C621.958 41.4167 621.688 41.3125 621.562 41.3125C620.771 41.3125 620.021 41.7917 619.312 42.75C618.604 43.7083 617.896 44.8958 617.188 46.3125C616.479 47.7292 615.729 49.25 614.938 50.875C614.146 52.4583 613.271 53.8958 612.312 55.1875C611.354 56.4792 610.292 57.5 609.125 58.25C608 58.9583 606.729 59.125 605.312 58.75V56.5625C605.604 56.1875 606.062 55.6042 606.688 54.8125C607.354 54.0208 608.062 53.125 608.812 52.125C609.604 51.125 610.438 50.0833 611.312 49C612.188 47.875 613 46.8125 613.75 45.8125C614.542 44.8125 615.229 43.9167 615.812 43.125C616.438 42.3333 616.896 41.7292 617.188 41.3125C617.729 40.6042 617.812 39.625 617.438 38.375C617.104 37.0833 616.583 35.7083 615.875 34.25C615.208 32.7917 614.479 31.3333 613.688 29.875C612.896 28.4167 612.333 27.1667 612 26.125C611.667 25.0833 611.688 24.3333 612.062 23.875C612.438 23.4167 613.458 23.4583 615.125 24C615.708 25.75 616.521 27.5417 617.562 29.375C618.604 31.2083 619.938 32.6667 621.562 33.75C622.896 32.875 624.146 31.6875 625.312 30.1875C626.521 28.6875 627.625 27 628.625 25.125C629.667 23.25 630.604 21.2708 631.438 19.1875C632.312 17.0625 633.083 14.9792 633.75 12.9375C634.458 10.8542 635.062 8.89583 635.562 7.0625C636.062 5.22917 636.479 3.64583 636.812 2.3125C637.146 1.72917 637.604 1.27083 638.188 0.9375C638.812 0.604167 639.417 0.333333 640 0.125C640.292 0.5 640.479 1.41667 640.562 2.875C640.646 4.33333 640.688 6.125 640.688 8.25C640.688 10.3333 640.646 12.6667 640.562 15.25C640.521 17.7917 640.479 20.375 640.438 23C640.438 25.5833 640.458 28.125 640.5 30.625C640.542 33.0833 640.646 35.2708 640.812 37.1875C641.021 39.0625 641.312 40.5833 641.688 41.75C642.062 42.9167 642.583 43.5 643.25 43.5H649.812V47.375H644.375C643.625 47.375 643.333 47.8542 643.5 48.8125C643.667 49.7292 644.042 50.9167 644.625 52.375C645.25 53.8333 645.958 55.4583 646.75 57.25C647.583 59 648.271 60.6875 648.812 62.3125C649.396 63.9375 649.729 65.4167 649.812 66.75C649.896 68.0833 649.521 69.0208 648.688 69.5625C648.521 69.6458 648.146 69.6875 647.562 69.6875C647.021 69.6875 646.667 69.6458 646.5 69.5625C646.292 68.8125 645.875 67.5208 645.25 65.6875C644.625 63.8542 643.958 61.8958 643.25 59.8125C642.583 57.7292 641.938 55.7708 641.312 53.9375C640.688 52.1042 640.25 50.8125 640 50.0625ZM629.188 40.25C629.438 40.375 629.896 40.6042 630.562 40.9375C631.271 41.2292 632.021 41.5625 632.812 41.9375C633.646 42.2708 634.438 42.5833 635.188 42.875C635.938 43.1667 636.479 43.375 636.812 43.5C636.896 43.5417 637.062 43.5625 637.312 43.5625C637.562 43.5625 637.729 43.5417 637.812 43.5C637.979 41.7917 637.979 39.6458 637.812 37.0625C637.646 34.4792 637.417 31.8333 637.125 29.125C636.875 26.4167 636.604 23.8333 636.312 21.375C636.021 18.875 635.812 16.875 635.688 15.375L623.75 37.0625C623.917 37.1875 624.25 37.4167 624.75 37.75C625.292 38.0417 625.833 38.375 626.375 38.75C626.958 39.0833 627.5 39.3958 628 39.6875C628.542 39.9792 628.938 40.1667 629.188 40.25ZM18.1875 127C18.2708 126.958 18.3542 126.438 18.4375 125.438C18.5625 124.396 18.6875 123.188 18.8125 121.812C18.9375 120.438 19.0417 119.021 19.125 117.562C19.2083 116.104 19.2708 114.896 19.3125 113.938C19.3125 113.396 19.3125 112.625 19.3125 111.625C19.3542 110.625 19.375 109.521 19.375 108.312C19.375 107.062 19.375 105.771 19.375 104.438C19.4167 103.104 19.4167 101.854 19.375 100.688C19.375 99.4792 19.3542 98.4167 19.3125 97.5C19.3125 96.5833 19.3125 95.9167 19.3125 95.5C19.3125 95.3333 19.25 95.0417 19.125 94.625C19.0417 94.2083 18.9375 93.7708 18.8125 93.3125C18.7292 92.8542 18.625 92.4375 18.5 92.0625C18.375 91.6458 18.2708 91.3542 18.1875 91.1875C16.7292 91.0625 15.25 91.1458 13.75 91.4375C12.25 91.7292 10.7708 92.0625 9.3125 92.4375C7.85417 92.8125 6.39583 93.125 4.9375 93.375C3.52083 93.625 2.16667 93.625 0.875 93.375C0.541667 92.6667 0.854167 91.9583 1.8125 91.25C2.8125 90.5 4.25 89.8542 6.125 89.3125C8 88.7292 10.1875 88.2708 12.6875 87.9375C15.1875 87.5625 17.7708 87.3958 20.4375 87.4375C23.1042 87.4792 25.7292 87.7708 28.3125 88.3125C30.8958 88.8125 33.2083 89.6458 35.25 90.8125C37.2917 91.9375 38.9375 93.4167 40.1875 95.25C41.4375 97.0833 42.0625 99.3542 42.0625 102.062C42.0625 103.021 41.8958 104.042 41.5625 105.125C41.2292 106.208 40.7917 107.292 40.25 108.375C39.75 109.458 39.1667 110.5 38.5 111.5C37.875 112.458 37.25 113.271 36.625 113.938C36.3333 114.271 35.8542 114.792 35.1875 115.5C34.5208 116.167 33.75 116.938 32.875 117.812C32.0417 118.688 31.1458 119.604 30.1875 120.562C29.2292 121.479 28.3125 122.375 27.4375 123.25C26.6042 124.083 25.8333 124.833 25.125 125.5C24.4583 126.167 23.9583 126.667 23.625 127C23.5 128 23.3333 128.917 23.125 129.75C22.9167 130.583 22.6042 131.229 22.1875 131.688C21.7708 132.146 21.2292 132.354 20.5625 132.312C19.9375 132.312 19.1458 131.979 18.1875 131.312C17.2708 131.938 16.2917 132.812 15.25 133.938C14.25 135.104 13.2083 136.208 12.125 137.25C11.0417 138.333 9.91667 139.188 8.75 139.812C7.58333 140.438 6.41667 140.5 5.25 140V137.812L18.1875 127ZM23.625 122.625C26.25 121.542 28.5625 119.958 30.5625 117.875C32.6042 115.75 34.2083 113.438 35.375 110.938C36.5833 108.438 37.3125 105.917 37.5625 103.375C37.8125 100.792 37.5 98.5208 36.625 96.5625C35.75 94.6042 34.25 93.1042 32.125 92.0625C30.0417 90.9792 27.2083 90.6875 23.625 91.1875V122.625ZM50.3125 130.938C48.6875 129.729 47.6042 128.292 47.0625 126.625C46.5625 124.958 46.1875 123.146 45.9375 121.188C46.0208 120.604 46.125 119.688 46.25 118.438C46.375 117.188 46.5208 115.792 46.6875 114.25C46.8542 112.667 47 111 47.125 109.25C47.2917 107.5 47.4375 105.854 47.5625 104.312C47.7292 102.729 47.8542 101.312 47.9375 100.062C48.0208 98.8125 48.0833 97.8958 48.125 97.3125C48.1667 96.9792 48.1875 96.3958 48.1875 95.5625V90.375C48.1875 89.5417 48.1667 88.9583 48.125 88.625L49.25 87.5L68.75 81H70.9375C71.1458 81.5833 71.1667 82.2083 71 82.875C70.875 83.5417 70.4792 84 69.8125 84.25L53.5625 90.8125L52.5 91.875C52.4583 91.9167 52.3958 92.3542 52.3125 93.1875C52.2292 94.0208 52.125 95.0208 52 96.1875C51.875 97.3125 51.75 98.4792 51.625 99.6875C51.5 100.896 51.4167 101.896 51.375 102.688C51.375 102.896 51.3542 103.271 51.3125 103.812C51.3125 104.312 51.3125 104.854 51.3125 105.438C51.3125 105.979 51.3125 106.521 51.3125 107.062C51.3542 107.562 51.375 107.917 51.375 108.125L69.8125 98.375C70.1042 98.2083 70.3125 98.25 70.4375 98.5C70.6042 98.75 70.6875 99.0833 70.6875 99.5C70.6875 99.9167 70.6042 100.333 70.4375 100.75C70.3125 101.167 70.1042 101.458 69.8125 101.625C69.1042 102.083 68.2292 102.604 67.1875 103.188C66.1875 103.771 65.125 104.396 64 105.062C62.9167 105.688 61.8125 106.312 60.6875 106.938C59.6042 107.562 58.625 108.125 57.75 108.625C56.875 109.125 56.1458 109.542 55.5625 109.875C55.0208 110.167 54.7292 110.312 54.6875 110.312H50.3125V124.375C50.3125 126.292 50.7292 127.521 51.5625 128.062C52.4375 128.604 53.5208 128.729 54.8125 128.438C56.1458 128.104 57.5833 127.479 59.125 126.562C60.6667 125.646 62.1042 124.667 63.4375 123.625C64.8125 122.583 65.9792 121.625 66.9375 120.75C67.9375 119.833 68.5417 119.25 68.75 119C68.9167 117.958 69.1458 117.104 69.4375 116.438C69.6875 115.854 70.0208 115.438 70.4375 115.188C70.8542 114.938 71.375 115.125 72 115.75C72.25 117.042 72.0417 118.438 71.375 119.938C70.75 121.438 69.8333 122.896 68.625 124.312C67.4167 125.729 65.9792 127.042 64.3125 128.25C62.6875 129.417 61.0208 130.354 59.3125 131.062C57.6458 131.729 56.0208 132.083 54.4375 132.125C52.8542 132.208 51.4792 131.812 50.3125 130.938ZM113.188 128.75C111.896 127.792 110.917 126.458 110.25 124.75C109.625 123.042 109.188 121.229 108.938 119.312C108.688 117.396 108.583 115.542 108.625 113.75C108.667 111.917 108.75 110.396 108.875 109.188C108.917 108.729 109.021 107.896 109.188 106.688C109.396 105.438 109.604 104.125 109.812 102.75C110.062 101.333 110.292 100.021 110.5 98.8125C110.75 97.5625 110.938 96.7083 111.062 96.25C112.146 91.75 113.333 88.125 114.625 85.375C115.958 82.625 117.292 80.5417 118.625 79.125C120 77.6667 121.354 76.7917 122.688 76.5C124.021 76.2083 125.208 76.2917 126.25 76.75C127.333 77.1667 128.229 77.8542 128.938 78.8125C129.688 79.7708 130.146 80.8125 130.312 81.9375C130.521 83.0208 130.396 84.0833 129.938 85.125C129.479 86.1667 128.604 86.9583 127.312 87.5C127.104 87.5833 126.833 87.6667 126.5 87.75C126.208 87.7917 125.917 87.8125 125.625 87.8125C125.333 87.8125 125.083 87.7917 124.875 87.75C124.708 87.6667 124.625 87.5833 124.625 87.5V81C124.625 80.875 124.396 80.8125 123.938 80.8125C123.521 80.8125 123.188 80.875 122.938 81C121.562 81.7917 120.312 83.1042 119.188 84.9375C118.062 86.7292 117.062 88.6875 116.188 90.8125C115.354 92.8958 114.667 94.9375 114.125 96.9375C113.625 98.8958 113.312 100.458 113.188 101.625C113.146 102.083 113.104 102.792 113.062 103.75C113.021 104.708 112.979 105.812 112.938 107.062C112.938 108.271 112.938 109.542 112.938 110.875C112.938 112.208 112.938 113.479 112.938 114.688C112.979 115.896 113.021 117 113.062 118C113.104 118.958 113.146 119.667 113.188 120.125C113.188 120.833 113.375 121.583 113.75 122.375C114.125 123.125 114.583 123.854 115.125 124.562C115.667 125.229 116.25 125.854 116.875 126.438C117.5 126.979 118.083 127.375 118.625 127.625C120.042 128.333 121.562 128.5 123.188 128.125C124.854 127.75 126.479 127 128.062 125.875C129.688 124.75 131.229 123.375 132.688 121.75C134.146 120.125 135.396 118.438 136.438 116.688C137.521 114.938 138.312 113.208 138.812 111.5C139.354 109.792 139.5 108.312 139.25 107.062C137.708 106.854 136.167 106.896 134.625 107.188C133.083 107.438 131.542 107.75 130 108.125C128.5 108.5 126.979 108.833 125.438 109.125C123.896 109.375 122.333 109.396 120.75 109.188C120.667 108.938 120.604 108.646 120.562 108.312C120.562 107.979 120.604 107.667 120.688 107.375C120.771 107.042 120.896 106.75 121.062 106.5C121.271 106.25 121.542 106.062 121.875 105.938C123.375 105.938 125.042 105.646 126.875 105.062C128.708 104.479 130.562 103.875 132.438 103.25C134.312 102.625 136.125 102.104 137.875 101.688C139.625 101.271 141.146 101.25 142.438 101.625C142.688 103.958 142.479 106.521 141.812 109.312C141.146 112.104 140.146 114.812 138.812 117.438C137.479 120.062 135.854 122.479 133.938 124.688C132.062 126.896 130 128.625 127.75 129.875C125.5 131.083 123.125 131.667 120.625 131.625C118.167 131.583 115.688 130.625 113.188 128.75ZM181.125 120.062C181.083 119.854 180.917 119.479 180.625 118.938C180.375 118.396 180.167 118.042 180 117.875C179.542 117.708 178.688 117.438 177.438 117.062C176.229 116.646 174.938 116.208 173.562 115.75C172.188 115.25 170.875 114.792 169.625 114.375C168.417 113.958 167.562 113.667 167.062 113.5C166.938 113.458 166.667 113.333 166.25 113.125C165.833 112.875 165.375 112.625 164.875 112.375C164.375 112.083 163.917 111.833 163.5 111.625C163.083 111.417 162.812 111.312 162.688 111.312C161.896 111.312 161.146 111.792 160.438 112.75C159.729 113.708 159.021 114.896 158.312 116.312C157.604 117.729 156.854 119.25 156.062 120.875C155.271 122.458 154.396 123.896 153.438 125.188C152.479 126.479 151.417 127.5 150.25 128.25C149.125 128.958 147.854 129.125 146.438 128.75V126.562C146.729 126.188 147.188 125.604 147.812 124.812C148.479 124.021 149.188 123.125 149.938 122.125C150.729 121.125 151.562 120.083 152.438 119C153.312 117.875 154.125 116.812 154.875 115.812C155.667 114.812 156.354 113.917 156.938 113.125C157.562 112.333 158.021 111.729 158.312 111.312C158.854 110.604 158.938 109.625 158.562 108.375C158.229 107.083 157.708 105.708 157 104.25C156.333 102.792 155.604 101.333 154.812 99.875C154.021 98.4167 153.458 97.1667 153.125 96.125C152.792 95.0833 152.812 94.3333 153.188 93.875C153.562 93.4167 154.583 93.4583 156.25 94C156.833 95.75 157.646 97.5417 158.688 99.375C159.729 101.208 161.062 102.667 162.688 103.75C164.021 102.875 165.271 101.688 166.438 100.188C167.646 98.6875 168.75 97 169.75 95.125C170.792 93.25 171.729 91.2708 172.562 89.1875C173.438 87.0625 174.208 84.9792 174.875 82.9375C175.583 80.8542 176.188 78.8958 176.688 77.0625C177.188 75.2292 177.604 73.6458 177.938 72.3125C178.271 71.7292 178.729 71.2708 179.312 70.9375C179.938 70.6042 180.542 70.3333 181.125 70.125C181.417 70.5 181.604 71.4167 181.688 72.875C181.771 74.3333 181.812 76.125 181.812 78.25C181.812 80.3333 181.771 82.6667 181.688 85.25C181.646 87.7917 181.604 90.375 181.562 93C181.562 95.5833 181.583 98.125 181.625 100.625C181.667 103.083 181.771 105.271 181.938 107.188C182.146 109.062 182.438 110.583 182.812 111.75C183.188 112.917 183.708 113.5 184.375 113.5H190.938V117.375H185.5C184.75 117.375 184.458 117.854 184.625 118.812C184.792 119.729 185.167 120.917 185.75 122.375C186.375 123.833 187.083 125.458 187.875 127.25C188.708 129 189.396 130.688 189.938 132.312C190.521 133.938 190.854 135.417 190.938 136.75C191.021 138.083 190.646 139.021 189.812 139.562C189.646 139.646 189.271 139.688 188.688 139.688C188.146 139.688 187.792 139.646 187.625 139.562C187.417 138.812 187 137.521 186.375 135.688C185.75 133.854 185.083 131.896 184.375 129.812C183.708 127.729 183.062 125.771 182.438 123.938C181.812 122.104 181.375 120.812 181.125 120.062ZM170.312 110.25C170.562 110.375 171.021 110.604 171.688 110.938C172.396 111.229 173.146 111.562 173.938 111.938C174.771 112.271 175.562 112.583 176.312 112.875C177.062 113.167 177.604 113.375 177.938 113.5C178.021 113.542 178.188 113.562 178.438 113.562C178.688 113.562 178.854 113.542 178.938 113.5C179.104 111.792 179.104 109.646 178.938 107.062C178.771 104.479 178.542 101.833 178.25 99.125C178 96.4167 177.729 93.8333 177.438 91.375C177.146 88.875 176.938 86.875 176.812 85.375L164.875 107.062C165.042 107.188 165.375 107.417 165.875 107.75C166.417 108.042 166.958 108.375 167.5 108.75C168.083 109.083 168.625 109.396 169.125 109.688C169.667 109.979 170.062 110.167 170.312 110.25ZM194.062 130.938C193.479 124.604 193.083 118.271 192.875 111.938C192.708 105.604 192.729 99.2708 192.938 92.9375C193.021 92.7292 193.188 92.3542 193.438 91.8125C193.729 91.2292 194.062 90.7083 194.438 90.25C194.854 89.75 195.312 89.4167 195.812 89.25C196.312 89.0417 196.812 89.1875 197.312 89.6875L202.75 95.125L217.938 120.125L218.25 120.562C218.5 120.854 218.792 121.167 219.125 121.5C219.458 121.792 219.792 122.042 220.125 122.25C220.5 122.417 220.854 122.396 221.188 122.188C221.146 121.521 221.062 120.479 220.938 119.062C220.812 117.646 220.667 116.062 220.5 114.312C220.375 112.521 220.229 110.646 220.062 108.688C219.896 106.729 219.729 104.854 219.562 103.062C219.438 101.271 219.312 99.6667 219.188 98.25C219.104 96.8333 219.042 95.7917 219 95.125C218.958 94.5833 218.938 93.6875 218.938 92.4375C218.938 91.1458 219 89.7083 219.125 88.125C219.292 86.5417 219.521 84.9167 219.812 83.25C220.146 81.5833 220.604 80.125 221.188 78.875C221.771 77.5833 222.5 76.625 223.375 76C224.25 75.3333 225.312 75.2083 226.562 75.625C226.729 75.625 226.938 75.7708 227.188 76.0625C227.479 76.3125 227.625 76.5208 227.625 76.6875C227.333 77.0625 226.979 77.5208 226.562 78.0625C226.146 78.5625 225.729 79.1042 225.312 79.6875C224.938 80.2708 224.562 80.875 224.188 81.5C223.812 82.0833 223.542 82.6458 223.375 83.1875C223.333 83.7292 223.312 84.5625 223.312 85.6875C223.312 86.8125 223.292 88.1042 223.25 89.5625C223.25 90.9792 223.25 92.4792 223.25 94.0625C223.292 95.6042 223.312 97.1042 223.312 98.5625V102.375C223.312 103.5 223.333 104.333 223.375 104.875C223.375 105.208 223.417 106.021 223.5 107.312C223.625 108.562 223.75 109.917 223.875 111.375C224 112.833 224.125 114.208 224.25 115.5C224.375 116.792 224.438 117.604 224.438 117.938C224.438 118.354 224.438 119 224.438 119.875C224.479 120.75 224.5 121.646 224.5 122.562C224.5 123.479 224.479 124.333 224.438 125.125C224.438 125.875 224.438 126.354 224.438 126.562C224.396 126.771 224.292 127.083 224.125 127.5C223.958 127.917 223.729 128.292 223.438 128.625C223.146 128.958 222.812 129.188 222.438 129.312C222.062 129.396 221.646 129.208 221.188 128.75L213.562 121.188L199.5 98.375L197.812 97.3125V130.938C197.812 131.521 197.625 131.875 197.25 132C196.917 132.167 196.521 132.188 196.062 132.062C195.646 131.979 195.229 131.833 194.812 131.625C194.396 131.375 194.146 131.146 194.062 130.938ZM266.312 120.062C266.271 119.854 266.104 119.479 265.812 118.938C265.562 118.396 265.354 118.042 265.188 117.875C264.729 117.708 263.875 117.438 262.625 117.062C261.417 116.646 260.125 116.208 258.75 115.75C257.375 115.25 256.062 114.792 254.812 114.375C253.604 113.958 252.75 113.667 252.25 113.5C252.125 113.458 251.854 113.333 251.438 113.125C251.021 112.875 250.562 112.625 250.062 112.375C249.562 112.083 249.104 111.833 248.688 111.625C248.271 111.417 248 111.312 247.875 111.312C247.083 111.312 246.333 111.792 245.625 112.75C244.917 113.708 244.208 114.896 243.5 116.312C242.792 117.729 242.042 119.25 241.25 120.875C240.458 122.458 239.583 123.896 238.625 125.188C237.667 126.479 236.604 127.5 235.438 128.25C234.312 128.958 233.042 129.125 231.625 128.75V126.562C231.917 126.188 232.375 125.604 233 124.812C233.667 124.021 234.375 123.125 235.125 122.125C235.917 121.125 236.75 120.083 237.625 119C238.5 117.875 239.312 116.812 240.062 115.812C240.854 114.812 241.542 113.917 242.125 113.125C242.75 112.333 243.208 111.729 243.5 111.312C244.042 110.604 244.125 109.625 243.75 108.375C243.417 107.083 242.896 105.708 242.188 104.25C241.521 102.792 240.792 101.333 240 99.875C239.208 98.4167 238.646 97.1667 238.312 96.125C237.979 95.0833 238 94.3333 238.375 93.875C238.75 93.4167 239.771 93.4583 241.438 94C242.021 95.75 242.833 97.5417 243.875 99.375C244.917 101.208 246.25 102.667 247.875 103.75C249.208 102.875 250.458 101.688 251.625 100.188C252.833 98.6875 253.938 97 254.938 95.125C255.979 93.25 256.917 91.2708 257.75 89.1875C258.625 87.0625 259.396 84.9792 260.062 82.9375C260.771 80.8542 261.375 78.8958 261.875 77.0625C262.375 75.2292 262.792 73.6458 263.125 72.3125C263.458 71.7292 263.917 71.2708 264.5 70.9375C265.125 70.6042 265.729 70.3333 266.312 70.125C266.604 70.5 266.792 71.4167 266.875 72.875C266.958 74.3333 267 76.125 267 78.25C267 80.3333 266.958 82.6667 266.875 85.25C266.833 87.7917 266.792 90.375 266.75 93C266.75 95.5833 266.771 98.125 266.812 100.625C266.854 103.083 266.958 105.271 267.125 107.188C267.333 109.062 267.625 110.583 268 111.75C268.375 112.917 268.896 113.5 269.562 113.5H276.125V117.375H270.688C269.938 117.375 269.646 117.854 269.812 118.812C269.979 119.729 270.354 120.917 270.938 122.375C271.562 123.833 272.271 125.458 273.062 127.25C273.896 129 274.583 130.688 275.125 132.312C275.708 133.938 276.042 135.417 276.125 136.75C276.208 138.083 275.833 139.021 275 139.562C274.833 139.646 274.458 139.688 273.875 139.688C273.333 139.688 272.979 139.646 272.812 139.562C272.604 138.812 272.188 137.521 271.562 135.688C270.938 133.854 270.271 131.896 269.562 129.812C268.896 127.729 268.25 125.771 267.625 123.938C267 122.104 266.562 120.812 266.312 120.062ZM255.5 110.25C255.75 110.375 256.208 110.604 256.875 110.938C257.583 111.229 258.333 111.562 259.125 111.938C259.958 112.271 260.75 112.583 261.5 112.875C262.25 113.167 262.792 113.375 263.125 113.5C263.208 113.542 263.375 113.562 263.625 113.562C263.875 113.562 264.042 113.542 264.125 113.5C264.292 111.792 264.292 109.646 264.125 107.062C263.958 104.479 263.729 101.833 263.438 99.125C263.188 96.4167 262.917 93.8333 262.625 91.375C262.333 88.875 262.125 86.875 262 85.375L250.062 107.062C250.229 107.188 250.562 107.417 251.062 107.75C251.604 108.042 252.146 108.375 252.688 108.75C253.271 109.083 253.812 109.396 254.312 109.688C254.854 109.979 255.25 110.167 255.5 110.25ZM288.938 130.938C288.896 130.188 288.833 129.062 288.75 127.562C288.708 126.021 288.646 124.292 288.562 122.375C288.521 120.417 288.458 118.375 288.375 116.25C288.292 114.125 288.208 112.104 288.125 110.188C288.083 108.271 288.042 106.562 288 105.062C287.958 103.521 287.938 102.375 287.938 101.625C287.938 101.375 287.917 100.958 287.875 100.375C287.875 99.75 287.875 99.1042 287.875 98.4375C287.875 97.7292 287.875 97.0625 287.875 96.4375C287.917 95.8125 287.938 95.375 287.938 95.125C287.438 95.375 286.833 95.8125 286.125 96.4375C285.458 97.0625 284.729 97.75 283.938 98.5C283.146 99.2083 282.333 99.875 281.5 100.5C280.708 101.083 279.958 101.458 279.25 101.625C278.292 101.042 277.854 100.333 277.938 99.5C278.021 98.625 278.479 97.7083 279.312 96.75C280.188 95.75 281.333 94.7292 282.75 93.6875C284.208 92.6458 285.792 91.6458 287.5 90.6875C289.25 89.7292 291.042 88.8542 292.875 88.0625C294.708 87.2708 296.438 86.625 298.062 86.125C299.729 85.5833 301.188 85.25 302.438 85.125C303.729 84.9583 304.688 85.0417 305.312 85.375C306.479 86.5833 307.042 88.0833 307 89.875C306.958 91.6667 306.562 93.5833 305.812 95.625C305.062 97.6667 304.083 99.7917 302.875 102C301.667 104.208 300.5 106.354 299.375 108.438C298.25 110.479 297.292 112.417 296.5 114.25C295.708 116.042 295.333 117.583 295.375 118.875C295.417 120.167 296.021 121.125 297.188 121.75C298.354 122.375 300.333 122.521 303.125 122.188C304.542 121.854 306.021 121.333 307.562 120.625C309.104 119.875 310.604 119.062 312.062 118.188C313.521 117.271 314.875 116.312 316.125 115.312C317.417 114.312 318.5 113.375 319.375 112.5C320.833 112.875 321.646 113.417 321.812 114.125C321.979 114.833 321.688 115.625 320.938 116.5C320.229 117.375 319.146 118.292 317.688 119.25C316.229 120.208 314.583 121.146 312.75 122.062C310.917 122.938 309 123.729 307 124.438C305.042 125.146 303.146 125.688 301.312 126.062C299.521 126.438 297.896 126.604 296.438 126.562C295.021 126.521 293.979 126.167 293.312 125.5C293.312 125.75 293.292 126.188 293.25 126.812C293.208 127.438 293.125 128.104 293 128.812C292.875 129.479 292.667 130.125 292.375 130.75C292.083 131.333 291.667 131.75 291.125 132C290.667 132.208 290.229 132.167 289.812 131.875C289.438 131.583 289.146 131.271 288.938 130.938ZM292.25 117.188L303.75 91.5C303.458 90.5417 302.958 89.875 302.25 89.5C301.583 89.0833 300.812 88.8958 299.938 88.9375C299.062 88.9375 298.167 89.125 297.25 89.5C296.333 89.875 295.479 90.3333 294.688 90.875C293.938 91.375 293.312 91.9375 292.812 92.5625C292.312 93.1458 292.062 93.6875 292.062 94.1875L292.25 117.188Z" fill="#FFD402"/>
</svg>
