<svg width="34" height="19" viewBox="0 0 34 19" fill="none" xmlns="http://www.w3.org/2000/svg">
<path fill-rule="evenodd" clip-rule="evenodd" d="M3.42403 18.2362H6.60705V13.1666H0V11.5104V11.1305V9.33179L0.259414 9.24868C3.68701 8.15641 5.643 5.45541 6.60705 3.65673V0.777649H7.36036V0H8.09527V0.777649H8.84798V3.63892C9.45229 4.68964 10.471 6.0253 12.1005 7.0404C14.954 8.81534 18.6428 8.81534 21.4975 7.0404C23.1265 6.0253 24.1451 4.68964 24.7494 3.63892V0.777649H25.5021V0H26.2376V0.777649H26.9904V3.65079C27.9562 5.44948 29.9146 8.15641 33.3386 9.25462L33.598 9.33179V11.1305V11.5104V13.1666H26.9904V18.2362H30.174V18.996H26.9904H24.7494H22.7762V18.2362H24.7494V13.1666H8.84798V18.2362H10.8218V18.996H8.84798H6.60705H3.42403V18.2362ZM8.84799 11.8902V12.4007H24.7494V11.8902H8.84799ZM32.8625 12.4007H26.991V11.8902H32.8625V12.4007ZM31.3873 11.1303H32.8625V9.89558C32.3371 9.71156 31.8462 9.49192 31.3873 9.24854V11.1303ZM30.6518 8.8214V11.1306H29.1488V7.68164C29.5993 8.0853 30.0992 8.47116 30.6518 8.8214ZM28.4133 11.1304V6.95719C27.8458 6.3517 27.3756 5.72839 26.991 5.13477V11.1304H28.4133ZM25.4849 1.5376H26.2554V2.02437V3.87648V11.1306V11.8904V12.4009V13.1667V18.2363H25.4849V13.1667V12.4009V11.8904V11.1306V3.86461V2.03624V1.5376ZM24.75 11.1305V5.01611C24.3297 5.59193 23.8014 6.19149 23.1437 6.75543V11.1305H24.75ZM21.8769 7.69358C22.0615 7.57485 22.2384 7.45613 22.4088 7.3374V11.1307H20.5828V8.35844C21.0274 8.16848 21.4607 7.94884 21.8769 7.69358ZM17.1665 11.1304H19.8479V8.63721C18.9782 8.92215 18.0753 9.08243 17.1665 9.11804V11.1304ZM16.4315 11.1304H13.7501V8.63721C14.6198 8.92215 15.5227 9.08243 16.4315 9.11804V11.1304ZM13.0146 11.1307V8.35844C12.5706 8.16848 12.1373 7.94884 11.7211 7.69358C11.5359 7.57485 11.3596 7.45613 11.1892 7.3374V11.1307H13.0146ZM10.4537 6.75543V11.1305H8.84799V5.01611C9.26768 5.59193 9.79661 6.19149 10.4537 6.75543ZM5.18472 11.1303H6.60705V5.14062C6.22238 5.72832 5.75223 6.35162 5.18472 6.95712V11.1303ZM4.44923 7.68164V11.1306H2.94617V8.8214C3.49883 8.47116 3.99866 8.0853 4.44923 7.68164ZM2.21126 9.24854C1.75179 9.49192 1.26086 9.71156 0.735504 9.89558V11.1303H2.21126V9.24854ZM0.735504 12.4007V11.8902H6.60705V12.4007H0.735504ZM7.34254 11.8904V12.4009V13.1667V18.2363H8.11307V13.1667V12.4009V11.8904V11.1306V3.86461V2.03624V1.5376H7.34254V2.02437V3.87648V11.1306V11.8904Z" fill="white"/>
</svg>
