<svg width="205" height="46" viewBox="0 0 205 46" fill="none" xmlns="http://www.w3.org/2000/svg">
<path d="M14.1761 30.7186C21.0876 30.7186 23.7835 26.49 23.7835 19.2551C23.7835 12.0219 20.6307 6.9784 14.3787 6.9784H7.3716V30.7186H14.1761ZM0 0.662291H15.294C25.0019 0.662291 31.2539 8.50752 31.2539 19.2551C31.2539 25.1638 29.2709 30.3615 25.4587 33.5707C22.7645 35.8108 19.2569 37.085 14.6832 37.085H0V0.662291ZM52.3075 24.0454C52.3075 18.95 49.9195 15.4859 45.7006 15.4859C41.43 15.4859 39.0905 18.95 39.0905 24.0454C39.0905 29.1392 41.43 32.5513 45.7006 32.5513C49.9195 32.5513 52.3075 29.1392 52.3075 24.0454V24.0454ZM32.077 24.0454C32.077 16.2505 37.6178 10.2395 45.7006 10.2395C53.7819 10.2395 59.3227 16.2505 59.3227 24.0454C59.3227 31.837 53.7819 37.8496 45.7006 37.8496C37.6162 37.8496 32.0753 31.8387 32.0753 24.0454H32.077ZM60.4649 24.0454C60.4649 16.2505 65.5489 10.2395 73.4778 10.2395C80.2402 10.2395 84.4072 14.163 85.3226 19.8168H78.5618C78.1049 17.5247 76.326 15.7911 73.784 15.7911C69.6154 15.7911 67.4817 19.0019 67.4817 24.0454C67.4817 28.9866 69.4631 32.298 73.6819 32.298C76.4783 32.298 78.4613 30.8209 78.9182 27.8665H85.5769C85.12 33.4181 80.7975 37.8496 73.8342 37.8496C65.6007 37.8496 60.4649 31.8387 60.4649 24.0454V24.0454ZM103.577 37.0867V34.0301H103.424C101.645 36.4244 99.6121 37.7993 95.9522 37.7993C90.157 37.7993 86.9038 34.082 86.9038 28.3746V10.9521H93.7651V27.2026C93.7651 30.2592 95.1389 31.9409 98.086 31.9409C101.339 31.9409 103.322 29.4963 103.322 26.0323V10.9521H110.235V37.0867H103.577V37.0867ZM143.916 37.0867H150.828V10.9521H143.916V37.0867V37.0867ZM143.916 7.29981H150.828V0.822994H143.916V7.29981V7.29981ZM171.944 22.8718C171.944 19.0522 169.911 15.7927 165.743 15.7927C162.235 15.7927 159.897 18.5425 159.897 22.9237C159.897 27.3552 162.235 29.9541 165.794 29.9541C170.166 29.9541 171.944 26.7449 171.944 22.8734V22.8718ZM153.695 37.8496H160.555C161.116 39.4794 162.588 40.7536 165.791 40.7536C169.705 40.7536 171.586 38.869 171.586 35.3027V32.449H171.434C169.908 34.181 167.927 35.5056 164.621 35.5056C158.828 35.5056 153.135 30.9215 153.135 23.026C153.135 15.2311 157.81 10.2395 164.419 10.2395C167.672 10.2395 170.06 11.5122 171.637 13.7036H171.739V10.9521H178.397V35.0982C178.397 38.7667 177.228 41.2617 175.297 43.0457C173.109 45.0829 169.756 46 165.893 46C158.776 46 154.405 42.9434 153.694 37.8496H153.695ZM188.125 14.5185H188.277C190.056 11.7167 192.446 10.2395 196.003 10.2395C201.392 10.2395 205 14.3139 205 20.0197V37.085H198.087V21.0391C198.087 18.2373 196.46 16.2505 193.564 16.2505C190.513 16.2505 188.277 18.6951 188.277 22.2614V37.085H181.364V10.9521H188.125V14.5185V14.5185ZM128.162 15.1288C122.774 13.9601 120.232 13.0932 120.232 10.1373C120.232 7.54005 122.824 5.85835 126.79 5.85835C130.408 5.85835 133.173 7.55953 133.74 10.9521H140.83C140.109 3.8796 134.871 0 126.84 0C118.759 0 112.912 3.71889 112.912 10.9018C112.912 18.4922 118.859 20.2242 125.366 21.7014C130.907 22.9757 134.364 23.6883 134.364 27.2529C134.364 30.6163 131.059 31.9409 127.299 31.9409C122.114 31.9409 119.622 30.2089 119.114 25.8277H111.896C112.15 33.5204 117.741 37.8999 127.603 37.8999C135.786 37.8999 141.734 33.7752 141.734 26.3877C141.734 18.5425 135.634 16.7602 128.162 15.1288" fill="white"/>
</svg>
