<svg width="280" height="364" viewBox="0 0 280 364" fill="none" xmlns="http://www.w3.org/2000/svg">
<rect width="279.024" height="364" fill="black"/>
<path d="M138.688 180.432H130.964V174.481H128.627V189.593H130.964V182.432H138.688V189.593H141.001V174.481H138.688V180.432ZM115.896 174.432C115.048 174.407 113.326 174.407 111.8 174.407V189.58H114.162V183.827C114.752 183.827 115.97 183.778 116.954 183.753C118.332 183.728 121.923 183.037 121.899 178.877C121.936 174.185 116.757 174.432 115.896 174.432ZM115.773 181.815H114.211V176.346H115.54C116.155 176.346 119.783 176.074 119.894 178.901C120.041 181.679 117.176 181.815 115.773 181.815ZM94.1007 174.407L94.1253 189.58H103.609V187.605H96.4869V182.457H101.53C101.53 182.025 101.505 181.395 101.53 180.568H96.4869V176.432H103.609C103.584 175.235 103.609 174.407 103.609 174.407H94.1007ZM80.3124 178.111C80.3124 175.63 83.5842 175.531 85.5153 177.123C86.1795 175.21 86.2287 175.074 86.2287 175.074C80.5953 172.358 78.0246 175.951 78.0246 178.247C78.0246 183.741 85.7859 182.568 84.6666 186.432C84.273 187.84 81.7761 188.642 78.8979 186.889C78.6888 187.481 78.3444 188.198 78 188.914C81.8007 190.914 86.733 189.951 86.8929 185.827C87.1143 180.642 80.3124 181.012 80.3124 178.111ZM179.992 178.667C179.647 174.16 175.293 174.506 174.334 174.457C173.534 174.432 171.837 174.407 170.373 174.407V189.556H172.735V183.185C173.534 183.185 173.792 183.185 174.998 183.136L179.303 189.556H182.169L177.409 182.741C178.688 182.272 180.176 181.173 179.992 178.667ZM174.198 181.407C173.669 181.407 173.264 181.407 172.735 181.383V176.259H173.977C174.567 176.259 177.667 176.074 177.938 178.556C178.27 181.494 174.838 181.407 174.198 181.407ZM195.576 174.432H192.845L187.9 189.605H190.238C190.976 186.864 191.221 186.086 191.221 186.086L197.335 186.062C198.048 188.086 198.577 189.63 198.577 189.63H201L195.576 174.432ZM191.763 184.346L194.149 176.852H194.174L196.67 184.321L191.763 184.346ZM155.662 174C150.853 174 147.716 177.568 147.716 182C147.716 186.432 150.853 190 155.662 190C160.472 190 163.608 186.432 163.608 182C163.608 177.568 160.472 174 155.662 174ZM155.662 187.815C152.132 187.815 150.14 185.235 150.14 182C150.14 178.802 152.132 176.185 155.662 176.185C159.168 176.185 161.185 178.765 161.185 182C161.185 185.198 159.192 187.815 155.662 187.815Z" fill="white"/>
</svg>
