<svg width="280" height="364" viewBox="0 0 280 364" fill="none" xmlns="http://www.w3.org/2000/svg">
<rect width="279.024" height="364" fill="#FFD402"/>
<path d="M93.0308 181.434C93.0308 181.434 92.8749 187.175 101.046 189.449C98.6799 181.28 93.0308 181.434 93.0308 181.434Z" fill="#333333"/>
<path d="M88.3809 176.825C88.3809 176.825 88.5368 171.086 80.366 168.81C82.7325 176.979 88.3809 176.825 88.3809 176.825Z" fill="#333333"/>
<path d="M90.7199 182.761C90.7199 182.761 86.5511 186.709 90.7199 194.095C94.8242 186.645 90.7199 182.761 90.7199 182.761Z" fill="#333333"/>
<path d="M90.6912 176.212C90.6912 176.212 94.8606 172.264 90.6912 164.878C86.5876 172.328 90.6912 176.212 90.6912 176.212Z" fill="#333333"/>
<path d="M93.9802 179.472C93.9802 179.472 97.9279 183.641 105.315 179.472C97.8634 175.368 93.9802 179.472 93.9802 179.472Z" fill="#333333"/>
<path d="M87.4315 179.501C87.4315 179.501 83.4838 175.332 76.0976 179.501C83.5471 183.605 87.4315 179.501 87.4315 179.501Z" fill="#333333"/>
<path d="M93.011 176.805C93.011 176.805 98.7502 176.962 101.025 168.791C92.8557 171.156 93.011 176.805 93.011 176.805Z" fill="#333333"/>
<path d="M88.4007 181.456C88.4007 181.456 82.6609 181.3 80.3858 189.47C88.5566 187.105 88.4007 181.456 88.4007 181.456Z" fill="#333333"/>
<path d="M159.216 184.355V182.791C158.756 183.272 158.243 183.634 157.675 183.879C157.109 184.125 156.504 184.248 155.861 184.248C154.356 184.248 153.109 183.746 152.114 182.74C151.12 181.734 150.624 180.473 150.624 178.961C150.624 178.256 150.747 177.587 150.996 176.954C151.246 176.323 151.599 175.767 152.06 175.288C152.562 174.757 153.114 174.368 153.71 174.116C154.307 173.863 154.988 173.737 155.752 173.737C156.438 173.737 157.068 173.86 157.645 174.102C158.22 174.346 158.744 174.714 159.216 175.208V174.002H161.209V184.355H159.216ZM152.686 178.949C152.686 179.902 153.001 180.699 153.629 181.344C154.26 181.988 155.029 182.311 155.943 182.311C156.773 182.311 157.508 181.986 158.144 181.34C158.778 180.692 159.096 179.936 159.096 179.069C159.096 178.146 158.781 177.353 158.151 176.696C157.522 176.036 156.773 175.707 155.907 175.707C155.019 175.707 154.26 176.02 153.629 176.648C153.001 177.275 152.686 178.042 152.686 178.949Z" fill="#333333"/>
<path d="M180.364 188.853C178.187 189.872 174.671 188.219 174.671 188.219L175.526 186.298C175.526 186.298 177.211 187.43 179.536 186.839C181.769 185.954 181.568 184.017 181.568 184.017V182.791C181.107 183.272 180.594 183.634 180.026 183.879C179.459 184.125 178.853 184.248 178.211 184.248C176.709 184.248 175.459 183.746 174.465 182.74C173.472 181.734 172.973 180.473 172.973 178.961C172.973 178.256 173.098 177.587 173.347 176.954C173.595 176.323 173.951 175.767 174.411 175.288C174.914 174.757 175.464 174.368 176.061 174.116C176.659 173.863 177.339 173.737 178.103 173.737C178.788 173.737 179.418 173.86 179.994 174.102C180.571 174.346 181.095 174.714 181.568 175.208V174.002H183.561C183.561 174.002 183.561 183.018 183.561 184.017C183.561 186.11 182.558 187.827 180.364 188.853ZM175.037 178.949C175.037 179.902 175.35 180.699 175.98 181.344C176.611 181.988 177.382 182.311 178.292 182.311C179.125 182.311 179.859 181.986 180.495 181.34C181.128 180.692 181.447 179.936 181.447 179.069C181.447 178.146 181.132 177.353 180.502 176.696C179.872 176.036 179.125 175.707 178.26 175.707C177.369 175.707 176.611 176.02 175.98 176.648C175.35 177.275 175.037 178.042 175.037 178.949Z" fill="#333333"/>
<path d="M188.29 184.352H186.378V173.936H188.135V175.072C188.513 174.624 188.981 174.293 189.435 174.084C189.889 173.874 190.409 173.769 190.993 173.769C192.309 173.769 193.321 174.157 194.024 174.932C194.727 175.707 195.08 176.816 195.08 178.262V184.352H193.126V178.655C193.126 177.585 192.929 176.793 192.533 176.275C192.138 175.758 191.527 175.5 190.701 175.5C189.8 175.5 189.303 175.804 188.897 176.413C188.491 177.02 188.29 178.026 188.29 179.426V184.352Z" fill="#333333"/>
<path d="M119.291 184.352H117.379V173.936H119.135V175.072C119.514 174.624 119.981 174.293 120.436 174.084C120.888 173.874 121.408 173.769 121.994 173.769C123.31 173.769 124.321 174.157 125.025 174.932C125.728 175.707 126.08 176.816 126.08 178.262V184.352H124.128V178.655C124.128 177.585 123.93 176.793 123.535 176.275C123.139 175.758 122.528 175.5 121.701 175.5C120.801 175.5 120.303 175.804 119.898 176.413C119.493 177.02 119.291 178.026 119.291 179.426V184.352Z" fill="#333333"/>
<path d="M169.17 184.341V173.881H171.35V184.341H169.17Z" fill="#333333"/>
<path d="M168.742 170.619C168.742 169.78 169.421 169.1 170.26 169.1C171.098 169.1 171.778 169.78 171.778 170.619C171.778 171.458 171.098 172.136 170.26 172.136C169.421 172.136 168.742 171.458 168.742 170.619Z" fill="#333333"/>
<path d="M164.053 184.341V169.214H166.232V184.341H164.053Z" fill="#333333"/>
<path d="M138.129 184.341V173.881H140.309V184.341H138.129Z" fill="#333333"/>
<path d="M137.7 170.619C137.7 169.78 138.38 169.1 139.218 169.1C140.058 169.1 140.737 169.78 140.737 170.619C140.737 171.458 140.058 172.136 139.218 172.136C138.38 172.136 137.7 171.458 137.7 170.619Z" fill="#333333"/>
<path d="M112.262 184.341V173.881H114.441V184.341H112.262Z" fill="#333333"/>
<path d="M111.833 170.619C111.833 169.78 112.512 169.1 113.351 169.1C114.19 169.1 114.869 169.78 114.869 170.619C114.869 171.458 114.19 172.136 113.351 172.136C112.512 172.136 111.833 171.458 111.833 170.619Z" fill="#333333"/>
<path d="M126.717 173.879H129.191L131.835 179.617L134.702 173.879H137.176L131.778 184.341L126.717 173.879Z" fill="#333333"/>
<path d="M146.191 178.174C145.412 177.923 144.377 177.522 144.377 176.924C144.377 176.269 144.821 175.875 145.697 175.757C146.449 175.653 147.346 176.098 147.572 176.316L148.639 174.654C147.877 174.155 146.622 173.692 145.394 173.86C143.486 174.122 142.301 175.295 142.301 176.924C142.301 178.954 144.714 179.729 145.508 179.983C146.76 180.384 147.203 180.726 147.203 181.287C147.203 182.348 145.814 182.43 145.388 182.43C144.584 182.43 143.45 181.919 143.082 181.723L142.037 183.377C142.221 183.477 143.88 184.346 145.388 184.346C147.262 184.346 149.282 183.388 149.282 181.287C149.282 179.166 147.035 178.445 146.191 178.174Z" fill="#333333"/>
<path d="M201.143 173.796C199.907 173.796 198.899 174.803 198.899 176.038C198.899 177.275 199.907 178.281 201.143 178.281C202.379 178.281 203.386 177.275 203.386 176.038C203.386 174.803 202.379 173.796 201.143 173.796ZM202.983 176.038C202.983 177.053 202.156 177.879 201.143 177.879C200.128 177.879 199.302 177.053 199.302 176.038C199.302 175.022 200.128 174.198 201.143 174.198C202.156 174.198 202.983 175.022 202.983 176.038Z" fill="#333333"/>
<path d="M200.27 174.902C200.449 174.875 200.709 174.853 200.947 174.853C201.323 174.853 201.57 174.912 201.741 175.038C201.875 175.131 201.956 175.284 201.956 175.457C201.956 175.746 201.725 175.938 201.44 176.018V176.027C201.647 176.086 201.773 176.244 201.841 176.472C201.93 176.782 201.996 176.993 202.049 177.079H201.682C201.64 177.019 201.578 176.828 201.504 176.552C201.424 176.246 201.275 176.132 200.956 176.123H200.622V177.079H200.27V174.902ZM200.622 175.904H200.984C201.358 175.904 201.599 175.74 201.599 175.486C201.599 175.201 201.344 175.076 200.972 175.076C200.801 175.076 200.684 175.088 200.622 175.101V175.904Z" fill="#333333"/>
<path d="M113.979 196.091H112.653V199.767H112.112V196.091H110.79V195.643H113.979V196.091ZM115.032 197.073C115.264 196.788 115.566 196.646 115.938 196.646C116.586 196.646 116.913 197.011 116.918 197.742V199.767H116.394V197.739C116.392 197.518 116.341 197.355 116.241 197.249C116.143 197.143 115.989 197.09 115.78 197.09C115.61 197.09 115.461 197.136 115.332 197.226C115.204 197.317 115.104 197.436 115.032 197.583V199.767H114.508V195.417H115.032V197.073ZM118.974 199.823C118.559 199.823 118.221 199.687 117.96 199.416C117.7 199.142 117.57 198.776 117.57 198.32V198.223C117.57 197.919 117.627 197.648 117.742 197.41C117.859 197.171 118.022 196.984 118.229 196.85C118.439 196.714 118.666 196.646 118.909 196.646C119.308 196.646 119.617 196.777 119.838 197.039C120.059 197.302 120.169 197.678 120.169 198.167V198.385H118.094C118.101 198.687 118.189 198.931 118.357 199.118C118.527 199.303 118.742 199.396 119.003 199.396C119.188 199.396 119.344 199.358 119.473 199.282C119.601 199.207 119.713 199.107 119.81 198.982L120.13 199.231C119.873 199.626 119.488 199.823 118.974 199.823ZM118.909 197.076C118.698 197.076 118.52 197.154 118.377 197.308C118.233 197.461 118.145 197.677 118.111 197.954H119.645V197.915C119.63 197.648 119.559 197.443 119.43 197.297C119.302 197.15 119.128 197.076 118.909 197.076ZM125.332 198.458C125.281 198.894 125.12 199.231 124.848 199.469C124.578 199.705 124.218 199.823 123.769 199.823C123.282 199.823 122.891 199.649 122.596 199.299C122.304 198.95 122.157 198.483 122.157 197.898V197.501C122.157 197.118 122.225 196.781 122.361 196.49C122.499 196.199 122.694 195.976 122.945 195.822C123.196 195.665 123.487 195.587 123.817 195.587C124.255 195.587 124.606 195.709 124.871 195.955C125.135 196.198 125.289 196.536 125.332 196.969H124.786C124.738 196.64 124.636 196.402 124.477 196.255C124.32 196.108 124.1 196.034 123.817 196.034C123.47 196.034 123.197 196.162 122.999 196.419C122.802 196.676 122.704 197.041 122.704 197.515V197.915C122.704 198.362 122.798 198.718 122.984 198.982C123.171 199.247 123.433 199.379 123.769 199.379C124.071 199.379 124.302 199.311 124.463 199.175C124.625 199.037 124.733 198.798 124.786 198.458H125.332ZM126.564 199.767H126.04V195.417H126.564V199.767ZM128.677 199.823C128.261 199.823 127.924 199.687 127.663 199.416C127.402 199.142 127.272 198.776 127.272 198.32V198.223C127.272 197.919 127.33 197.648 127.445 197.41C127.562 197.171 127.724 196.984 127.932 196.85C128.142 196.714 128.368 196.646 128.612 196.646C129.01 196.646 129.32 196.777 129.541 197.039C129.762 197.302 129.872 197.678 129.872 198.167V198.385H127.796C127.804 198.687 127.891 198.931 128.059 199.118C128.229 199.303 128.445 199.396 128.705 199.396C128.89 199.396 129.047 199.358 129.175 199.282C129.304 199.207 129.416 199.107 129.512 198.982L129.832 199.231C129.576 199.626 129.19 199.823 128.677 199.823ZM128.612 197.076C128.4 197.076 128.223 197.154 128.079 197.308C127.936 197.461 127.847 197.677 127.813 197.954H129.348V197.915C129.333 197.648 129.261 197.443 129.133 197.297C129.004 197.15 128.831 197.076 128.612 197.076ZM132.373 199.767C132.342 199.706 132.318 199.599 132.299 199.444C132.055 199.697 131.765 199.823 131.427 199.823C131.125 199.823 130.876 199.738 130.682 199.568C130.489 199.397 130.393 199.18 130.393 198.917C130.393 198.598 130.514 198.351 130.756 198.175C130.999 197.998 131.341 197.909 131.781 197.909H132.291V197.668C132.291 197.485 132.236 197.34 132.126 197.232C132.017 197.123 131.855 197.068 131.642 197.068C131.455 197.068 131.298 197.115 131.172 197.209C131.045 197.304 130.982 197.418 130.982 197.552H130.455C130.455 197.399 130.509 197.252 130.617 197.11C130.726 196.967 130.874 196.853 131.059 196.77C131.245 196.687 131.45 196.646 131.673 196.646C132.026 196.646 132.303 196.735 132.503 196.912C132.703 197.088 132.807 197.33 132.814 197.64V199.05C132.814 199.331 132.85 199.555 132.922 199.721V199.767H132.373ZM131.503 199.367C131.667 199.367 131.823 199.325 131.97 199.24C132.118 199.155 132.224 199.045 132.291 198.909V198.28H131.88C131.238 198.28 130.917 198.468 130.917 198.843C130.917 199.008 130.972 199.136 131.081 199.229C131.191 199.321 131.331 199.367 131.503 199.367ZM135.117 197.173C135.038 197.159 134.952 197.153 134.859 197.153C134.516 197.153 134.282 197.299 134.16 197.592V199.767H133.636V196.702H134.145L134.154 197.056C134.326 196.783 134.569 196.646 134.885 196.646C134.987 196.646 135.064 196.659 135.117 196.685V197.173ZM139.399 198.691H137.671L137.283 199.767H136.723L138.297 195.643H138.773L140.35 199.767H139.793L139.399 198.691ZM137.836 198.243H139.237L138.535 196.314L137.836 198.243ZM141.393 199.767H140.869V195.417H141.393V199.767ZM142.945 195.96V196.702H143.517V197.107H142.945V199.008C142.945 199.13 142.97 199.223 143.021 199.285C143.072 199.346 143.159 199.376 143.282 199.376C143.342 199.376 143.425 199.365 143.531 199.342V199.767C143.393 199.804 143.259 199.823 143.129 199.823C142.895 199.823 142.718 199.753 142.599 199.611C142.48 199.469 142.421 199.268 142.421 199.008V197.107H141.863V196.702H142.421V195.96H142.945ZM145.403 199.823C144.987 199.823 144.649 199.687 144.389 199.416C144.128 199.142 143.998 198.776 143.998 198.32V198.223C143.998 197.919 144.056 197.648 144.171 197.41C144.288 197.171 144.45 196.984 144.658 196.85C144.868 196.714 145.094 196.646 145.338 196.646C145.736 196.646 146.046 196.777 146.267 197.039C146.487 197.302 146.598 197.678 146.598 198.167V198.385H144.522C144.53 198.687 144.617 198.931 144.785 199.118C144.955 199.303 145.171 199.396 145.431 199.396C145.616 199.396 145.773 199.358 145.901 199.282C146.03 199.207 146.142 199.107 146.238 198.982L146.558 199.231C146.302 199.626 145.916 199.823 145.403 199.823ZM145.338 197.076C145.126 197.076 144.949 197.154 144.805 197.308C144.662 197.461 144.573 197.677 144.539 197.954H146.074V197.915C146.059 197.648 145.987 197.443 145.859 197.297C145.73 197.15 145.557 197.076 145.338 197.076ZM148.688 197.173C148.609 197.159 148.523 197.153 148.43 197.153C148.087 197.153 147.853 197.299 147.731 197.592V199.767H147.207V196.702H147.717L147.725 197.056C147.897 196.783 148.14 196.646 148.456 196.646C148.558 196.646 148.635 196.659 148.688 196.685V197.173ZM149.668 196.702L149.685 197.088C149.919 196.793 150.225 196.646 150.602 196.646C151.25 196.646 151.577 197.011 151.582 197.742V199.767H151.058V197.739C151.056 197.518 151.006 197.355 150.905 197.249C150.807 197.143 150.653 197.09 150.444 197.09C150.274 197.09 150.125 197.136 149.996 197.226C149.868 197.317 149.768 197.436 149.696 197.583V199.767H149.172V196.702H149.668ZM154.264 199.767C154.234 199.706 154.209 199.599 154.191 199.444C153.947 199.697 153.656 199.823 153.318 199.823C153.016 199.823 152.768 199.738 152.574 199.568C152.381 199.397 152.285 199.18 152.285 198.917C152.285 198.598 152.405 198.351 152.647 198.175C152.891 197.998 153.232 197.909 153.672 197.909H154.182V197.668C154.182 197.485 154.127 197.34 154.018 197.232C153.908 197.123 153.747 197.068 153.534 197.068C153.347 197.068 153.19 197.115 153.063 197.209C152.937 197.304 152.874 197.418 152.874 197.552H152.347C152.347 197.399 152.401 197.252 152.508 197.11C152.618 196.967 152.765 196.853 152.95 196.77C153.137 196.687 153.342 196.646 153.565 196.646C153.918 196.646 154.194 196.735 154.395 196.912C154.595 197.088 154.698 197.33 154.706 197.64V199.05C154.706 199.331 154.742 199.555 154.814 199.721V199.767H154.264ZM153.395 199.367C153.559 199.367 153.715 199.325 153.862 199.24C154.009 199.155 154.116 199.045 154.182 198.909V198.28H153.771C153.13 198.28 152.809 198.468 152.809 198.843C152.809 199.008 152.863 199.136 152.973 199.229C153.082 199.321 153.223 199.367 153.395 199.367ZM156.238 195.96V196.702H156.81V197.107H156.238V199.008C156.238 199.13 156.264 199.223 156.315 199.285C156.366 199.346 156.452 199.376 156.575 199.376C156.636 199.376 156.719 199.365 156.824 199.342V199.767C156.687 199.804 156.553 199.823 156.422 199.823C156.188 199.823 156.012 199.753 155.893 199.611C155.774 199.469 155.714 199.268 155.714 199.008V197.107H155.156V196.702H155.714V195.96H156.238ZM157.994 199.767H157.47V196.702H157.994V199.767ZM157.428 195.89C157.428 195.805 157.453 195.733 157.504 195.674C157.557 195.616 157.634 195.587 157.736 195.587C157.838 195.587 157.916 195.616 157.969 195.674C158.021 195.733 158.048 195.805 158.048 195.89C158.048 195.975 158.021 196.045 157.969 196.102C157.916 196.159 157.838 196.187 157.736 196.187C157.634 196.187 157.557 196.159 157.504 196.102C157.453 196.045 157.428 195.975 157.428 195.89ZM159.846 199.056L160.605 196.702H161.14L160.042 199.767H159.642L158.532 196.702H159.067L159.846 199.056ZM162.876 199.823C162.461 199.823 162.123 199.687 161.863 199.416C161.602 199.142 161.472 198.776 161.472 198.32V198.223C161.472 197.919 161.529 197.648 161.645 197.41C161.762 197.171 161.924 196.984 162.132 196.85C162.341 196.714 162.568 196.646 162.811 196.646C163.21 196.646 163.519 196.777 163.74 197.039C163.961 197.302 164.072 197.678 164.072 198.167V198.385H161.996C162.003 198.687 162.091 198.931 162.259 199.118C162.429 199.303 162.644 199.396 162.905 199.396C163.09 199.396 163.246 199.358 163.375 199.282C163.503 199.207 163.616 199.107 163.712 198.982L164.032 199.231C163.775 199.626 163.39 199.823 162.876 199.823ZM162.811 197.076C162.6 197.076 162.422 197.154 162.279 197.308C162.135 197.461 162.047 197.677 162.013 197.954H163.548V197.915C163.533 197.648 163.461 197.443 163.332 197.297C163.204 197.15 163.03 197.076 162.811 197.076ZM166.83 195.96V196.702H167.402V197.107H166.83V199.008C166.83 199.13 166.855 199.223 166.906 199.285C166.957 199.346 167.044 199.376 167.167 199.376C167.227 199.376 167.31 199.365 167.416 199.342V199.767C167.278 199.804 167.144 199.823 167.014 199.823C166.78 199.823 166.603 199.753 166.484 199.611C166.366 199.469 166.306 199.268 166.306 199.008V197.107H165.748V196.702H166.306V195.96H166.83ZM167.821 198.206C167.821 197.906 167.88 197.636 167.997 197.396C168.116 197.156 168.28 196.971 168.49 196.841C168.701 196.711 168.942 196.646 169.212 196.646C169.629 196.646 169.966 196.79 170.223 197.079C170.481 197.368 170.611 197.752 170.611 198.232V198.269C170.611 198.567 170.553 198.835 170.438 199.073C170.325 199.309 170.161 199.493 169.948 199.625C169.737 199.757 169.493 199.823 169.217 199.823C168.802 199.823 168.465 199.679 168.206 199.39C167.95 199.101 167.821 198.719 167.821 198.243V198.206ZM168.348 198.269C168.348 198.608 168.426 198.881 168.583 199.087C168.742 199.293 168.953 199.396 169.217 199.396C169.484 199.396 169.695 199.292 169.852 199.084C170.008 198.875 170.087 198.582 170.087 198.206C170.087 197.87 170.007 197.598 169.846 197.391C169.687 197.181 169.476 197.076 169.212 197.076C168.953 197.076 168.744 197.179 168.586 197.385C168.427 197.591 168.348 197.885 168.348 198.269ZM172.789 199.767V195.643H174.137C174.584 195.643 174.92 195.736 175.145 195.921C175.371 196.106 175.485 196.38 175.485 196.742C175.485 196.935 175.43 197.106 175.32 197.255C175.211 197.402 175.062 197.516 174.873 197.597C175.096 197.66 175.271 197.779 175.4 197.954C175.53 198.128 175.595 198.336 175.595 198.577C175.595 198.947 175.475 199.238 175.235 199.449C174.996 199.661 174.657 199.767 174.219 199.767H172.789ZM173.332 197.838V199.322H174.23C174.483 199.322 174.682 199.257 174.828 199.127C174.975 198.994 175.049 198.813 175.049 198.583C175.049 198.086 174.779 197.838 174.239 197.838H173.332ZM173.332 197.402H174.154C174.391 197.402 174.581 197.342 174.723 197.224C174.866 197.105 174.938 196.943 174.938 196.739C174.938 196.513 174.872 196.348 174.74 196.246C174.608 196.143 174.407 196.091 174.137 196.091H173.332V197.402ZM177.801 197.173C177.722 197.159 177.636 197.153 177.544 197.153C177.2 197.153 176.967 197.299 176.844 197.592V199.767H176.32V196.702H176.83L176.838 197.056C177.01 196.783 177.254 196.646 177.569 196.646C177.671 196.646 177.748 196.659 177.801 196.685V197.173ZM180.064 199.767C180.034 199.706 180.009 199.599 179.99 199.444C179.747 199.697 179.456 199.823 179.118 199.823C178.816 199.823 178.568 199.738 178.373 199.568C178.181 199.397 178.084 199.18 178.084 198.917C178.084 198.598 178.205 198.351 178.447 198.175C178.691 197.998 179.032 197.909 179.472 197.909H179.982V197.668C179.982 197.485 179.927 197.34 179.818 197.232C179.708 197.123 179.547 197.068 179.333 197.068C179.146 197.068 178.99 197.115 178.863 197.209C178.737 197.304 178.674 197.418 178.674 197.552H178.147C178.147 197.399 178.201 197.252 178.308 197.11C178.418 196.967 178.565 196.853 178.75 196.77C178.937 196.687 179.142 196.646 179.365 196.646C179.718 196.646 179.994 196.735 180.194 196.912C180.394 197.088 180.498 197.33 180.506 197.64V199.05C180.506 199.331 180.542 199.555 180.613 199.721V199.767H180.064ZM179.195 199.367C179.359 199.367 179.515 199.325 179.662 199.24C179.809 199.155 179.916 199.045 179.982 198.909V198.28H179.571C178.929 198.28 178.608 198.468 178.608 198.843C178.608 199.008 178.663 199.136 178.773 199.229C178.882 199.321 179.023 199.367 179.195 199.367ZM182.556 199.396C182.743 199.396 182.906 199.339 183.046 199.226C183.186 199.112 183.263 198.971 183.278 198.801H183.774C183.765 198.977 183.704 199.144 183.593 199.302C183.481 199.461 183.332 199.587 183.145 199.682C182.96 199.776 182.764 199.823 182.556 199.823C182.139 199.823 181.807 199.685 181.559 199.407C181.314 199.128 181.191 198.746 181.191 198.263V198.175C181.191 197.877 181.246 197.612 181.355 197.379C181.465 197.147 181.622 196.967 181.826 196.838C182.031 196.71 182.274 196.646 182.553 196.646C182.897 196.646 183.182 196.749 183.409 196.954C183.637 197.16 183.759 197.427 183.774 197.756H183.278C183.263 197.558 183.188 197.395 183.052 197.269C182.918 197.14 182.752 197.076 182.553 197.076C182.287 197.076 182.08 197.173 181.933 197.365C181.788 197.556 181.715 197.832 181.715 198.195V198.294C181.715 198.647 181.788 198.919 181.933 199.11C182.079 199.3 182.286 199.396 182.556 199.396ZM185.635 199.823C185.219 199.823 184.881 199.687 184.621 199.416C184.36 199.142 184.23 198.776 184.23 198.32V198.223C184.23 197.919 184.288 197.648 184.403 197.41C184.52 197.171 184.682 196.984 184.89 196.85C185.099 196.714 185.326 196.646 185.57 196.646C185.968 196.646 186.278 196.777 186.498 197.039C186.719 197.302 186.83 197.678 186.83 198.167V198.385H184.754C184.761 198.687 184.849 198.931 185.017 199.118C185.187 199.303 185.402 199.396 185.663 199.396C185.848 199.396 186.005 199.358 186.133 199.282C186.261 199.207 186.374 199.107 186.47 198.982L186.79 199.231C186.533 199.626 186.148 199.823 185.635 199.823ZM185.57 197.076C185.358 197.076 185.181 197.154 185.037 197.308C184.894 197.461 184.805 197.677 184.771 197.954H186.306V197.915C186.291 197.648 186.219 197.443 186.091 197.297C185.962 197.15 185.789 197.076 185.57 197.076ZM189.223 198.954C189.223 198.812 189.169 198.703 189.061 198.625C188.956 198.546 188.77 198.478 188.503 198.421C188.239 198.365 188.029 198.297 187.872 198.218C187.717 198.138 187.602 198.044 187.526 197.934C187.453 197.825 187.416 197.695 187.416 197.544C187.416 197.292 187.522 197.08 187.733 196.906C187.947 196.733 188.218 196.646 188.549 196.646C188.896 196.646 189.178 196.735 189.393 196.915C189.61 197.094 189.718 197.324 189.718 197.603H189.192C189.192 197.46 189.13 197.336 189.008 197.232C188.887 197.128 188.734 197.076 188.549 197.076C188.358 197.076 188.209 197.118 188.101 197.201C187.994 197.284 187.94 197.392 187.94 197.527C187.94 197.653 187.99 197.748 188.09 197.813C188.19 197.877 188.37 197.938 188.631 197.997C188.893 198.055 189.106 198.125 189.268 198.206C189.431 198.287 189.55 198.386 189.628 198.501C189.707 198.614 189.747 198.753 189.747 198.917C189.747 199.191 189.637 199.411 189.418 199.577C189.199 199.741 188.915 199.823 188.566 199.823C188.32 199.823 188.103 199.78 187.914 199.693C187.726 199.606 187.577 199.485 187.47 199.331C187.364 199.174 187.311 199.005 187.311 198.824H187.835C187.845 198.999 187.914 199.139 188.045 199.243C188.177 199.345 188.351 199.396 188.566 199.396C188.764 199.396 188.923 199.356 189.042 199.277C189.162 199.196 189.223 199.088 189.223 198.954Z" fill="black"/>
</svg>
