<svg width="28" height="22" viewBox="0 0 28 22" fill="none" xmlns="http://www.w3.org/2000/svg">
<path d="M25.9375 17.1406C27.2031 15.875 28 14.2812 28 12.5C28 8.75 24.3906 5.65625 19.7031 5.14062C18.25 2.42188 14.7812 0.5 10.75 0.5C5.35938 0.5 1 3.875 1 8C1 9.73438 1.75 11.3281 3.0625 12.6406C2.3125 14.0469 1.28125 15.1719 1.28125 15.2188C1 15.5 0.90625 15.9688 1.04688 16.3906C1.23438 16.7656 1.60938 17.0469 2.07812 17.0469C4.5625 17.0469 6.57812 16.0625 7.9375 15.2188C8.35938 15.3125 8.82812 15.3594 9.25 15.4531C10.75 18.125 14.1719 20 18.25 20C19.1875 20 20.125 19.9062 21.0156 19.7188C22.375 20.5625 24.3906 21.5 26.9219 21.5C27.3438 21.5 27.7188 21.2656 27.9062 20.8438C28.0469 20.4688 28 20 27.6719 19.6719C27.6719 19.6719 26.6406 18.5469 25.9375 17.1406ZM7.51562 12.7812L6.71875 13.2969C6.0625 13.7656 5.35938 14.0938 4.70312 14.3281C4.79688 14.0938 4.9375 13.8594 5.07812 13.625L5.78125 12.1719L4.60938 11C4 10.3906 3.25 9.35938 3.25 8C3.25 5.1875 6.67188 2.75 10.75 2.75C14.7812 2.75 18.25 5.1875 18.25 8C18.25 10.8594 14.7812 13.25 10.75 13.25C9.95312 13.25 9.20312 13.2031 8.45312 13.0156L7.51562 12.7812ZM24.3438 15.5L23.1719 16.6719L23.9219 18.125C24.0156 18.3594 24.1562 18.5938 24.2969 18.8281C23.5938 18.5938 22.9375 18.2188 22.2812 17.7969L21.4375 17.2812L20.5469 17.5156C19.7969 17.7031 19 17.75 18.25 17.75C15.7188 17.75 13.4219 16.8125 12.0625 15.4531C16.8438 14.9375 20.5 11.7969 20.5 8C20.5 7.85938 20.4531 7.71875 20.4531 7.53125C23.4531 8.23438 25.75 10.2031 25.75 12.5C25.75 13.8594 24.9531 14.8906 24.3438 15.5Z" fill="white"/>
</svg>
