<svg width="26" height="19" viewBox="0 0 26 19" fill="none" xmlns="http://www.w3.org/2000/svg">
<path fill-rule="evenodd" clip-rule="evenodd" d="M13.3249 7.50824L14.0889 6.10652L15.5003 3.53209C15.5107 3.51127 15.5197 3.48352 15.526 3.4627L16.0173 2.56061L18.6791 7.41803L17.6618 8.43115L17.5647 8.334L16.2615 7.02943C16.2247 6.99474 16.181 6.96698 16.1331 6.94616C16.0853 6.92535 16.0332 6.91841 15.9812 6.91841C15.9291 6.91841 15.8778 6.92535 15.8299 6.94616C15.7813 6.96698 15.7383 6.99474 15.7015 7.02943L14.2734 8.4589L13.3249 7.50824ZM12.4991 7.37639L12.6462 7.10577H8.72002C8.30922 7.1127 7.91091 6.96698 7.60212 6.69635C7.29333 6.41879 7.09556 6.04407 7.04699 5.63466C6.99772 5.23219 7.10111 4.81584 7.33774 4.48276C7.57367 4.14274 7.92549 3.90681 8.32588 3.8166C8.36196 3.40025 8.55209 3.01859 8.85742 2.73409C9.16344 2.45652 9.56313 2.29692 9.97809 2.29692C10.0586 2.28998 10.1391 2.28998 10.2189 2.29692C10.2952 1.9569 10.4763 1.65158 10.7365 1.41564C10.9961 1.18665 11.3222 1.04093 11.6685 1.00623C12.0147 0.971537 12.3631 1.04787 12.6649 1.22135C12.9668 1.39483 13.2069 1.65851 13.3505 1.97078C13.4643 1.94996 13.5809 1.93608 13.6975 1.93608C14.0271 1.93608 14.3484 2.03323 14.6225 2.21365C14.8029 2.33161 14.957 2.48428 15.0777 2.66469L15.6856 1.54749C15.7196 1.48504 15.7702 1.43646 15.8313 1.40177C15.8924 1.36707 15.9617 1.34625 16.0332 1.34625C16.104 1.34625 16.1734 1.36707 16.2345 1.40177C16.2955 1.43646 16.3462 1.48504 16.3802 1.54749L19.4973 7.26537C19.5035 7.27231 19.5097 7.28618 19.5153 7.29312L25.2817 17.8545C25.3164 17.9101 25.3345 17.9795 25.3345 18.0488C25.3345 18.1182 25.3164 18.1876 25.2817 18.2431C25.2457 18.3056 25.1943 18.3542 25.1339 18.3889C25.0729 18.4236 25.0042 18.4374 24.9348 18.4374H7.12262C7.10458 18.4374 7.08724 18.4374 7.06919 18.4305H0.788548C0.720544 18.4305 0.653234 18.4166 0.593557 18.3819C0.53388 18.3472 0.484612 18.2987 0.449916 18.2362C0.41522 18.1807 0.396484 18.1113 0.396484 18.0419C0.396484 17.9725 0.41522 17.9031 0.449916 17.8407L4.13878 11.1027L4.16029 11.0542V11.0195L6.04983 7.56375C6.08383 7.5013 6.13449 7.44578 6.19555 7.41109C6.25662 7.37639 6.32601 7.35558 6.39679 7.35558C6.46826 7.35558 6.53765 7.37639 6.59872 7.41109C6.65978 7.44578 6.70974 7.5013 6.74375 7.56375L8.63467 11.0264C8.65896 11.0542 8.67978 11.0819 8.69712 11.1097L9.5784 12.7265L12.4908 7.39027C12.4935 7.39027 12.4963 7.38333 12.4991 7.37639ZM12.9321 8.22991L9.95728 13.6772C9.94895 13.7049 9.93785 13.7327 9.92397 13.7535L8.01292 17.237L7.78948 17.6464H24.2721L19.0733 8.14664L17.9415 9.27773C17.9047 9.31936 17.861 9.34712 17.8131 9.36794C17.7652 9.38875 17.7139 9.39569 17.6618 9.39569C17.6098 9.39569 17.5578 9.38875 17.5099 9.36794C17.462 9.34712 17.4183 9.31936 17.3815 9.27773L15.9812 7.88295L14.5538 9.2916C14.517 9.33324 14.4733 9.361 14.4254 9.38181C14.3928 9.39569 14.3581 9.40263 14.3234 9.40957C14.3068 9.40957 14.2901 9.40957 14.2741 9.40957C14.2221 9.40957 14.1707 9.40263 14.1222 9.38181C14.0743 9.361 14.0306 9.33324 13.9938 9.29854L12.9321 8.22991ZM9.98989 3.08798C9.75882 3.08798 9.53676 3.17819 9.37369 3.34473C9.20993 3.50433 9.11833 3.72639 9.11833 3.96232C9.11417 4.00396 9.11417 4.04559 9.11833 4.08723C9.12943 4.14968 9.12735 4.20519 9.11278 4.2607C9.0989 4.31622 9.07253 4.37173 9.03576 4.41337C8.99898 4.46194 8.95249 4.49664 8.90044 4.52439C8.8477 4.54521 8.79011 4.55909 8.73182 4.55909C8.61663 4.55909 8.50213 4.57991 8.39458 4.62154C8.28771 4.66318 8.18987 4.73257 8.10729 4.8089C8.02472 4.89217 7.9588 4.98932 7.913 5.09341C7.86789 5.19749 7.84361 5.31546 7.84222 5.42649C7.84152 5.54445 7.86303 5.66242 7.90536 5.76651C7.94839 5.87753 8.01223 5.97468 8.09342 6.05101C8.17391 6.13428 8.27036 6.20367 8.37653 6.24531C8.4827 6.29388 8.59651 6.3147 8.71239 6.32164H13.0508L14.5774 3.52515C14.5628 3.4974 14.5524 3.46964 14.5455 3.44188C14.5038 3.24065 14.3956 3.06023 14.2381 2.93532C14.0812 2.81042 13.8848 2.74103 13.6822 2.74103C13.5441 2.74103 13.4088 2.77572 13.2874 2.84511C13.2312 2.87287 13.1694 2.88675 13.1063 2.88675C13.0431 2.88675 12.9807 2.87287 12.9245 2.84511C12.8683 2.81736 12.8197 2.77572 12.7829 2.72715C12.7454 2.67163 12.7211 2.61612 12.7114 2.55367C12.6823 2.33161 12.5685 2.13038 12.395 1.98466C12.2208 1.84587 11.9995 1.77648 11.7767 1.7973C11.5533 1.81118 11.3451 1.91526 11.1952 2.0818C11.0446 2.24834 10.9635 2.46346 10.9683 2.68551C10.9662 2.71327 10.9662 2.74103 10.9683 2.76878C10.9822 2.84511 10.9753 2.92144 10.9468 2.99084C10.919 3.06023 10.8719 3.12268 10.8108 3.16432C10.7511 3.20595 10.681 3.23371 10.6082 3.24065C10.5346 3.24065 10.4618 3.22677 10.3965 3.19207C10.2716 3.12962 10.1321 3.08798 9.98989 3.08798ZM7.76519 12.4351L8.2551 11.9701L9.12666 13.5453L6.89086 17.6394H1.45124L4.5475 11.9979L5.06863 12.5183C5.10471 12.553 5.14843 12.5877 5.197 12.6085C5.24488 12.6224 5.29623 12.6363 5.34828 12.6363C5.40032 12.6363 5.45167 12.6224 5.50025 12.6085C5.54813 12.5877 5.59184 12.553 5.62862 12.5183L6.11089 12.0256L6.39679 11.7411L7.15038 12.4906C7.18716 12.5253 7.23088 12.553 7.27876 12.5738C7.32664 12.5947 7.37799 12.6016 7.43003 12.6016C7.48277 12.6016 7.53412 12.5947 7.582 12.5738C7.62988 12.553 7.6736 12.5253 7.71037 12.4906L7.76519 12.4351ZM5.36771 11.6579L4.97287 11.2623L6.43218 8.54217L7.87969 11.1999L7.45015 11.6232L6.69656 10.8737C6.65978 10.8321 6.61676 10.8043 6.56818 10.7835C6.5203 10.7627 6.46895 10.7558 6.41691 10.7558C6.36487 10.7558 6.31282 10.7627 6.26494 10.7835C6.21706 10.8043 6.17335 10.8321 6.13657 10.8737L5.36771 11.6579Z" fill="#040506"/>
</svg>
