<svg width="209" height="82" viewBox="0 0 280 110" fill="none" xmlns="http://www.w3.org/2000/svg">
<path fill-rule="evenodd" clip-rule="evenodd" d="M79.291 26.6094V41.4106H91.9831V84.3044H109.075V41.4106H122.536V26.6094H79.291Z" fill="white"/>
<path fill-rule="evenodd" clip-rule="evenodd" d="M79.291 26.6094V41.4106H91.9831V84.3044H109.075V41.4106H122.536V26.6094" fill="white"/>
<path d="M197.783 26.5938H181.556V84.3058H197.783V26.5938Z" fill="white"/>
<path fill-rule="evenodd" clip-rule="evenodd" d="M243.762 52.8526L262.705 26.6094H241.948L233.904 38.8233L227.155 26.6094H206.376L223.506 52.8526L200.936 84.3044H221.692L233.904 67.1381L243.235 84.3044H264.014L243.762 52.8526Z" fill="white"/>
<path fill-rule="evenodd" clip-rule="evenodd" d="M243.762 52.8526L262.705 26.6094H241.948L233.904 38.8233L227.155 26.6094H206.376L223.506 52.8526L200.936 84.3044H221.692L233.904 67.1381L243.235 84.3044H264.014" fill="white"/>
<path fill-rule="evenodd" clip-rule="evenodd" d="M0 55.4395C0 72.0799 13.5276 85.6426 30.1254 85.6426C38.7334 85.6426 46.725 81.9643 52.2593 76.4062C43.04 61.6219 43.04 61.6219 43.04 61.6219C40.5776 65.9228 35.658 68.4067 30.1237 68.4067C23.3633 68.4067 17.829 62.8418 17.829 55.4395C17.829 48.0626 23.3616 41.875 30.1237 41.875C35.658 41.875 40.5759 44.9866 43.04 49.2824C52.2593 34.4981 52.2593 34.4981 52.2593 34.4981C46.725 28.9299 38.7334 25.2363 30.1254 25.2363C13.5276 25.2363 0 38.794 0 55.4395Z" fill="white"/>
<path fill-rule="evenodd" clip-rule="evenodd" d="M144.117 38.8756C147.178 38.8756 151.434 39.4949 153.268 41.3374C154.499 42.5505 154.499 43.789 154.499 45.635C154.499 50.5483 151.434 52.3858 144.118 52.3858L144.117 38.8756ZM159.376 60.974C166.084 59.1451 170.34 53.005 170.34 45.0106C170.34 39.4966 168.524 35.1974 165.462 32.1197C161.813 28.4466 156.309 26.6074 149.62 26.6074C127.045 26.6074 127.045 26.6074 127.045 26.6074C127.045 84.3042 127.045 84.3042 127.045 84.3042C144.117 84.3042 144.117 84.3042 144.117 84.3042C144.117 67.1107 144.117 67.1107 144.117 67.1107C155.104 84.3042 155.104 84.3042 155.104 84.3042C177.054 84.3042 177.054 84.3042 177.054 84.3042L159.376 60.974Z" fill="white"/>
<path d="M74.335 26.5938H57.2158V84.3058H74.335V26.5938Z" fill="white"/>
<path fill-rule="evenodd" clip-rule="evenodd" d="M55.4141 11.0551C55.4141 4.94224 60.2538 0 66.228 0C72.1953 0 77.0368 4.94224 77.0368 11.0551C77.0368 17.1358 72.1953 22.0797 66.228 22.0797C60.2538 22.078 55.4141 17.1358 55.4141 11.0551Z" fill="white"/>
<path fill-rule="evenodd" clip-rule="evenodd" d="M178.869 99.1783C178.869 93.2045 183.709 88.3691 189.675 88.3691C195.645 88.3691 200.482 93.2045 200.482 99.1783C200.482 105.164 195.644 110.001 189.675 110.001C183.707 110.001 178.869 105.164 178.869 99.1783Z" fill="white"/>
<path d="M273.392 39.1337C269.76 39.1337 266.795 36.1782 266.795 32.5304C266.795 28.8844 269.76 25.9238 273.392 25.9238C277.037 25.9238 280.002 28.8827 280.002 32.5304C280 36.1799 277.035 39.1337 273.392 39.1337ZM273.392 26.8468C270.181 26.8468 267.79 29.2373 267.79 32.5321C267.79 35.8405 270.181 38.2141 273.392 38.2141C276.614 38.2141 279.006 35.8405 279.006 32.5321C279.005 29.2373 276.614 26.8468 273.392 26.8468ZM275.337 36.4802L273.404 33.6621C273.002 33.0768 272.767 32.8816 272.151 32.8816V36.4785H271V28.4772H273.598C275.228 28.4772 276.065 29.5359 276.065 30.7219C276.065 31.8891 275.265 32.617 273.937 32.7934C274.291 33.0581 274.537 33.3754 274.876 33.8402L276.739 36.4785H275.337V36.4802ZM273.336 29.4698H272.153V31.9807H272.964C273.864 31.9807 274.827 31.8739 274.827 30.7236C274.826 29.9787 274.437 29.4698 273.336 29.4698Z" fill="white"/>
</svg>
