<svg width="196" height="55" viewBox="0 0 196 55" fill="none" xmlns="http://www.w3.org/2000/svg">
<path d="M24.7156 24.1658C24.7156 24.1658 24.4881 32.5455 36.4142 35.8644C32.9611 23.9402 24.7156 24.1658 24.7156 24.1658Z" fill="#333333"/>
<path d="M17.929 17.4373C17.929 17.4373 18.1566 9.06044 6.23047 5.73877C9.68456 17.663 17.929 17.4373 17.929 17.4373Z" fill="#333333"/>
<path d="M21.343 26.1025C21.343 26.1025 15.2583 31.8646 21.343 42.6456C27.3336 31.7705 21.343 26.1025 21.343 26.1025Z" fill="#333333"/>
<path d="M21.3007 16.5431C21.3007 16.5431 27.3864 10.781 21.3007 0C15.3111 10.8742 21.3007 16.5431 21.3007 16.5431Z" fill="#333333"/>
<path d="M26.1016 21.3021C26.1016 21.3021 31.8637 27.3869 42.6456 21.3021C31.7695 15.3116 26.1016 21.3021 26.1016 21.3021Z" fill="#333333"/>
<path d="M16.5431 21.344C16.5431 21.344 10.781 15.2592 0 21.344C10.8733 27.3346 16.5431 21.344 16.5431 21.344Z" fill="#333333"/>
<path d="M24.6868 17.4086C24.6868 17.4086 33.0637 17.638 36.3845 5.71094C24.4602 9.16409 24.6868 17.4086 24.6868 17.4086Z" fill="#333333"/>
<path d="M17.9579 24.1976C17.9579 24.1976 9.58001 23.9691 6.25928 35.8952C18.1854 32.4421 17.9579 24.1976 17.9579 24.1976Z" fill="#333333"/>
<path d="M121.32 28.4279V26.146C120.649 26.8482 119.899 27.376 119.071 27.7341C118.245 28.0931 117.361 28.2721 116.423 28.2721C114.227 28.2721 112.406 27.5392 110.954 26.0704C109.502 24.6026 108.779 22.7628 108.779 20.5555C108.779 19.5269 108.958 18.5496 109.322 17.6264C109.686 16.7041 110.203 15.8928 110.875 15.1934C111.608 14.4194 112.414 13.8506 113.283 13.4841C114.155 13.1148 115.149 12.9302 116.263 12.9302C117.265 12.9302 118.185 13.1092 119.026 13.4626C119.867 13.8189 120.63 14.3569 121.32 15.0769V13.3172H124.229V28.4279H121.32ZM111.789 20.5377C111.789 21.9282 112.249 23.0919 113.165 24.0329C114.087 24.9738 115.209 25.4447 116.542 25.4447C117.754 25.4447 118.827 24.971 119.755 24.0282C120.681 23.0817 121.144 21.9776 121.144 20.7121C121.144 19.3656 120.685 18.2083 119.765 17.2497C118.847 16.2854 117.754 15.8052 116.49 15.8052C115.194 15.8052 114.087 16.2621 113.165 17.1797C112.249 18.0945 111.789 19.2145 111.789 20.5377Z" fill="#333333"/>
<path d="M152.188 34.9929C149.01 36.4803 143.877 34.0678 143.877 34.0678L145.126 31.2637C145.126 31.2637 147.585 32.9171 150.978 32.0536C154.238 30.762 153.945 27.9346 153.945 27.9346V26.146C153.271 26.8482 152.523 27.376 151.695 27.7341C150.866 28.0931 149.982 28.2721 149.045 28.2721C146.852 28.2721 145.028 27.5392 143.578 26.0704C142.128 24.6026 141.399 22.7628 141.399 20.5555C141.399 19.5269 141.581 18.5496 141.945 17.6264C142.308 16.7041 142.826 15.8928 143.498 15.1934C144.232 14.4194 145.035 13.8506 145.906 13.4841C146.779 13.1148 147.772 12.9302 148.888 12.9302C149.886 12.9302 150.807 13.1092 151.647 13.4627C152.489 13.8189 153.254 14.3569 153.945 15.0769V13.3172H156.853C156.853 13.3172 156.853 26.4761 156.853 27.9346C156.853 30.9905 155.39 33.4962 152.188 34.9929ZM144.411 20.5378C144.411 21.9282 144.869 23.0919 145.789 24.0329C146.709 24.9738 147.835 25.4447 149.164 25.4447C150.379 25.4447 151.45 24.971 152.378 24.0282C153.302 23.0817 153.768 21.9776 153.768 20.7121C153.768 19.3656 153.308 18.2083 152.388 17.2497C151.469 16.2854 150.379 15.8052 149.116 15.8052C147.816 15.8052 146.709 16.2621 145.789 17.1797C144.869 18.0945 144.411 19.2145 144.411 20.5378Z" fill="#333333"/>
<path d="M163.756 28.4235H160.965V13.2214H163.53V14.8794C164.081 14.2248 164.765 13.7417 165.427 13.4368C166.09 13.1309 166.849 12.9771 167.701 12.9771C169.622 12.9771 171.099 13.544 172.125 14.6743C173.152 15.8054 173.667 17.4243 173.667 19.5346V28.4235H170.815V20.109C170.815 18.547 170.527 17.3907 169.95 16.6344C169.373 15.88 168.481 15.5033 167.275 15.5033C165.96 15.5033 165.235 15.9481 164.643 16.8368C164.05 17.7227 163.756 19.1914 163.756 21.2346V28.4235Z" fill="#333333"/>
<path d="M63.0455 28.4235H60.2544V13.2214H62.817V14.8794C63.37 14.2248 64.0517 13.7417 64.7156 13.4368C65.3768 13.1309 66.1349 12.9771 66.9901 12.9771C68.9111 12.9771 70.3863 13.544 71.414 14.6743C72.4407 15.8054 72.9545 17.4243 72.9545 19.5346V28.4235H70.1047V20.109C70.1047 18.547 69.8156 17.3907 69.2393 16.6344C68.6611 15.88 67.7696 15.5033 66.563 15.5033C65.249 15.5033 64.5216 15.9481 63.9314 16.8368C63.3401 17.7227 63.0455 19.1914 63.0455 21.2346V28.4235Z" fill="#333333"/>
<path d="M135.849 28.408V13.1416H139.031V28.408H135.849Z" fill="#333333"/>
<path d="M135.224 8.37971C135.224 7.1553 136.214 6.16309 137.44 6.16309C138.662 6.16309 139.656 7.1553 139.656 8.37971C139.656 9.60412 138.662 10.5935 137.44 10.5935C136.214 10.5935 135.224 9.60412 135.224 8.37971Z" fill="#333333"/>
<path d="M128.379 28.4077V6.3291H131.56V28.4077H128.379Z" fill="#333333"/>
<path d="M90.541 28.408V13.1416H93.7228V28.408H90.541Z" fill="#333333"/>
<path d="M89.9155 8.37971C89.9155 7.1553 90.9077 6.16309 92.1312 6.16309C93.3566 6.16309 94.3478 7.1553 94.3478 8.37971C94.3478 9.60412 93.3566 10.5935 92.1312 10.5935C90.9077 10.5935 89.9155 9.60412 89.9155 8.37971Z" fill="#333333"/>
<path d="M52.7847 28.408V13.1416H55.9655V28.408H52.7847Z" fill="#333333"/>
<path d="M52.1592 8.37971C52.1592 7.1553 53.1505 6.16309 54.3749 6.16309C55.5993 6.16309 56.5906 7.1553 56.5906 8.37971C56.5906 9.60412 55.5993 10.5935 54.3749 10.5935C53.1505 10.5935 52.1592 9.60412 52.1592 8.37971Z" fill="#333333"/>
<path d="M73.8843 13.1387H77.495L81.3538 21.5128L85.539 13.1387H89.1507L81.2718 28.4079L73.8843 13.1387Z" fill="#333333"/>
<path d="M102.308 19.4069C101.171 19.0404 99.6614 18.4557 99.6614 17.5828C99.6614 16.6261 100.309 16.0516 101.588 15.8782C102.685 15.7271 103.994 16.3761 104.324 16.6941L105.881 14.2686C104.769 13.5412 102.938 12.8652 101.145 13.1095C98.3596 13.4918 96.6307 15.2049 96.6307 17.5828C96.6307 20.5455 100.153 21.6766 101.311 22.0478C103.139 22.6325 103.786 23.1314 103.786 23.9501C103.786 25.4991 101.758 25.6194 101.136 25.6194C99.9626 25.6194 98.3083 24.8724 97.7712 24.5871L96.2446 27.0014C96.5141 27.1469 98.9359 28.4151 101.136 28.4151C103.872 28.4151 106.82 27.0172 106.82 23.9501C106.82 20.8551 103.541 19.8022 102.308 19.4069Z" fill="#333333"/>
<path d="M182.516 13.0166C180.712 13.0166 179.241 14.4872 179.241 16.2888C179.241 18.0952 180.712 19.563 182.516 19.563C184.32 19.563 185.79 18.0952 185.79 16.2888C185.79 14.4872 184.32 13.0166 182.516 13.0166ZM185.201 16.2888C185.201 17.7706 183.994 18.9764 182.516 18.9764C181.034 18.9764 179.829 17.7706 179.829 16.2888C179.829 14.8071 181.034 13.6041 182.516 13.6041C183.994 13.6041 185.201 14.8071 185.201 16.2888Z" fill="#333333"/>
<path d="M181.243 14.6304C181.503 14.5913 181.882 14.5596 182.23 14.5596C182.779 14.5596 183.139 14.6454 183.389 14.83C183.584 14.9652 183.704 15.189 183.704 15.4408C183.704 15.8623 183.366 16.143 182.95 16.2596V16.2726C183.251 16.3584 183.436 16.5897 183.535 16.9226C183.665 17.3749 183.761 17.6835 183.839 17.8085H183.304C183.241 17.7208 183.151 17.442 183.043 17.0392C182.927 16.5925 182.709 16.4265 182.243 16.4134H181.756V17.8085H181.243V14.6304ZM181.756 16.0936H182.284C182.831 16.0936 183.181 15.8539 183.181 15.4828C183.181 15.0669 182.81 14.885 182.267 14.885C182.017 14.885 181.846 14.9027 181.756 14.9214V16.0936Z" fill="#333333"/>
<path d="M55.7373 46.6621H53.4521V53H52.5195V46.6621H50.2393V45.8906H55.7373V46.6621ZM57.5537 48.3564C57.9541 47.8649 58.4749 47.6191 59.1162 47.6191C60.2327 47.6191 60.7959 48.249 60.8057 49.5088V53H59.9023V49.5039C59.8991 49.123 59.8112 48.8415 59.6387 48.6592C59.4694 48.4769 59.2041 48.3857 58.8428 48.3857C58.5498 48.3857 58.2926 48.4639 58.0713 48.6201C57.8499 48.7764 57.6774 48.9814 57.5537 49.2354V53H56.6504V45.5H57.5537V48.3564ZM64.3506 53.0977C63.6344 53.0977 63.0518 52.8633 62.6025 52.3945C62.1533 51.9225 61.9287 51.2926 61.9287 50.5049V50.3389C61.9287 49.8148 62.028 49.3477 62.2266 48.9375C62.4284 48.5241 62.7083 48.2018 63.0664 47.9707C63.4277 47.7363 63.8184 47.6191 64.2383 47.6191C64.9251 47.6191 65.459 47.8454 65.8398 48.2979C66.2207 48.7503 66.4111 49.3981 66.4111 50.2412V50.6172H62.832C62.8451 51.138 62.9964 51.5596 63.2861 51.8818C63.5791 52.2008 63.9502 52.3604 64.3994 52.3604C64.7184 52.3604 64.9886 52.2952 65.21 52.165C65.4313 52.0348 65.625 51.8623 65.791 51.6475L66.3428 52.0771C65.9001 52.7575 65.236 53.0977 64.3506 53.0977ZM64.2383 48.3613C63.8737 48.3613 63.5677 48.4948 63.3203 48.7617C63.0729 49.0254 62.9199 49.3965 62.8613 49.875H65.5078V49.8066C65.4818 49.3477 65.3581 48.9928 65.1367 48.7422C64.9154 48.4883 64.6159 48.3613 64.2383 48.3613ZM75.3125 50.7441C75.2246 51.4961 74.9463 52.0771 74.4775 52.4873C74.012 52.8942 73.3919 53.0977 72.6172 53.0977C71.7773 53.0977 71.1035 52.7965 70.5957 52.1943C70.0911 51.5921 69.8389 50.7865 69.8389 49.7773V49.0938C69.8389 48.4329 69.9561 47.8519 70.1904 47.3506C70.4281 46.8493 70.7633 46.4652 71.1963 46.1982C71.6292 45.9281 72.1305 45.793 72.7002 45.793C73.4554 45.793 74.0609 46.0046 74.5166 46.4277C74.9723 46.8477 75.2376 47.4303 75.3125 48.1758H74.3701C74.2887 47.6094 74.1113 47.1992 73.8379 46.9453C73.5677 46.6914 73.1885 46.5645 72.7002 46.5645C72.1012 46.5645 71.6309 46.7858 71.2891 47.2285C70.9505 47.6712 70.7812 48.3011 70.7812 49.1182V49.8066C70.7812 50.5781 70.9424 51.1917 71.2646 51.6475C71.5869 52.1032 72.0378 52.3311 72.6172 52.3311C73.138 52.3311 73.5368 52.2139 73.8135 51.9795C74.0934 51.7419 74.279 51.3301 74.3701 50.7441H75.3125ZM77.4365 53H76.5332V45.5H77.4365V53ZM81.0791 53.0977C80.363 53.0977 79.7803 52.8633 79.3311 52.3945C78.8818 51.9225 78.6572 51.2926 78.6572 50.5049V50.3389C78.6572 49.8148 78.7565 49.3477 78.9551 48.9375C79.1569 48.5241 79.4368 48.2018 79.7949 47.9707C80.1562 47.7363 80.5469 47.6191 80.9668 47.6191C81.6536 47.6191 82.1875 47.8454 82.5684 48.2979C82.9492 48.7503 83.1396 49.3981 83.1396 50.2412V50.6172H79.5605C79.5736 51.138 79.7249 51.5596 80.0146 51.8818C80.3076 52.2008 80.6787 52.3604 81.1279 52.3604C81.4469 52.3604 81.7171 52.2952 81.9385 52.165C82.1598 52.0348 82.3535 51.8623 82.5195 51.6475L83.0713 52.0771C82.6286 52.7575 81.9645 53.0977 81.0791 53.0977ZM80.9668 48.3613C80.6022 48.3613 80.2962 48.4948 80.0488 48.7617C79.8014 49.0254 79.6484 49.3965 79.5898 49.875H82.2363V49.8066C82.2103 49.3477 82.0866 48.9928 81.8652 48.7422C81.6439 48.4883 81.3444 48.3613 80.9668 48.3613ZM87.4512 53C87.3991 52.8958 87.3568 52.7103 87.3242 52.4434C86.9043 52.8796 86.403 53.0977 85.8203 53.0977C85.2995 53.0977 84.8714 52.9512 84.5361 52.6582C84.2041 52.362 84.0381 51.9876 84.0381 51.5352C84.0381 50.985 84.2464 50.5586 84.6631 50.2559C85.083 49.9499 85.6722 49.7969 86.4307 49.7969H87.3096V49.3818C87.3096 49.0661 87.2152 48.8154 87.0264 48.6299C86.8376 48.4411 86.5592 48.3467 86.1914 48.3467C85.8691 48.3467 85.599 48.4281 85.3809 48.5908C85.1628 48.7536 85.0537 48.9505 85.0537 49.1816H84.1455C84.1455 48.918 84.2383 48.6641 84.4238 48.4199C84.6126 48.1725 84.8665 47.9772 85.1855 47.834C85.5078 47.6908 85.861 47.6191 86.2451 47.6191C86.8538 47.6191 87.3307 47.7721 87.6758 48.0781C88.0208 48.3809 88.1999 48.7992 88.2129 49.333V51.7646C88.2129 52.2497 88.2747 52.6354 88.3984 52.9219V53H87.4512ZM85.9521 52.3115C86.2354 52.3115 86.5039 52.2383 86.7578 52.0918C87.0117 51.9453 87.1956 51.7549 87.3096 51.5205V50.4365H86.6016C85.4948 50.4365 84.9414 50.7604 84.9414 51.4082C84.9414 51.6914 85.0358 51.9128 85.2246 52.0723C85.4134 52.2318 85.6559 52.3115 85.9521 52.3115ZM92.1826 48.5273C92.0459 48.5046 91.8978 48.4932 91.7383 48.4932C91.1458 48.4932 90.7438 48.7454 90.5322 49.25V53H89.6289V47.7168H90.5078L90.5225 48.3271C90.8187 47.8551 91.2386 47.6191 91.7822 47.6191C91.958 47.6191 92.0915 47.6419 92.1826 47.6875V48.5273ZM99.5654 51.1445H96.5869L95.918 53H94.9512L97.666 45.8906H98.4863L101.206 53H100.244L99.5654 51.1445ZM96.8701 50.373H99.2871L98.0762 47.0479L96.8701 50.373ZM103.003 53H102.1V45.5H103.003V53ZM105.679 46.4375V47.7168H106.665V48.415H105.679V51.6914C105.679 51.903 105.723 52.0625 105.811 52.1699C105.898 52.2741 106.048 52.3262 106.26 52.3262C106.364 52.3262 106.507 52.3066 106.689 52.2676V53C106.452 53.0651 106.221 53.0977 105.996 53.0977C105.592 53.0977 105.288 52.9756 105.083 52.7314C104.878 52.4873 104.775 52.1406 104.775 51.6914V48.415H103.813V47.7168H104.775V46.4375H105.679ZM109.917 53.0977C109.201 53.0977 108.618 52.8633 108.169 52.3945C107.72 51.9225 107.495 51.2926 107.495 50.5049V50.3389C107.495 49.8148 107.594 49.3477 107.793 48.9375C107.995 48.5241 108.275 48.2018 108.633 47.9707C108.994 47.7363 109.385 47.6191 109.805 47.6191C110.492 47.6191 111.025 47.8454 111.406 48.2979C111.787 48.7503 111.978 49.3981 111.978 50.2412V50.6172H108.398C108.411 51.138 108.563 51.5596 108.853 51.8818C109.146 52.2008 109.517 52.3604 109.966 52.3604C110.285 52.3604 110.555 52.2952 110.776 52.165C110.998 52.0348 111.191 51.8623 111.357 51.6475L111.909 52.0771C111.466 52.7575 110.802 53.0977 109.917 53.0977ZM109.805 48.3613C109.44 48.3613 109.134 48.4948 108.887 48.7617C108.639 49.0254 108.486 49.3965 108.428 49.875H111.074V49.8066C111.048 49.3477 110.924 48.9928 110.703 48.7422C110.482 48.4883 110.182 48.3613 109.805 48.3613ZM115.581 48.5273C115.444 48.5046 115.296 48.4932 115.137 48.4932C114.544 48.4932 114.142 48.7454 113.931 49.25V53H113.027V47.7168H113.906L113.921 48.3271C114.217 47.8551 114.637 47.6191 115.181 47.6191C115.356 47.6191 115.49 47.6419 115.581 47.6875V48.5273ZM117.271 47.7168L117.3 48.3809C117.703 47.873 118.231 47.6191 118.882 47.6191C119.998 47.6191 120.562 48.249 120.571 49.5088V53H119.668V49.5039C119.665 49.123 119.577 48.8415 119.404 48.6592C119.235 48.4769 118.97 48.3857 118.608 48.3857C118.315 48.3857 118.058 48.4639 117.837 48.6201C117.616 48.7764 117.443 48.9814 117.319 49.2354V53H116.416V47.7168H117.271ZM125.195 53C125.143 52.8958 125.101 52.7103 125.068 52.4434C124.648 52.8796 124.147 53.0977 123.564 53.0977C123.044 53.0977 122.616 52.9512 122.28 52.6582C121.948 52.362 121.782 51.9876 121.782 51.5352C121.782 50.985 121.991 50.5586 122.407 50.2559C122.827 49.9499 123.416 49.7969 124.175 49.7969H125.054V49.3818C125.054 49.0661 124.959 48.8154 124.771 48.6299C124.582 48.4411 124.303 48.3467 123.936 48.3467C123.613 48.3467 123.343 48.4281 123.125 48.5908C122.907 48.7536 122.798 48.9505 122.798 49.1816H121.89C121.89 48.918 121.982 48.6641 122.168 48.4199C122.357 48.1725 122.611 47.9772 122.93 47.834C123.252 47.6908 123.605 47.6191 123.989 47.6191C124.598 47.6191 125.075 47.7721 125.42 48.0781C125.765 48.3809 125.944 48.7992 125.957 49.333V51.7646C125.957 52.2497 126.019 52.6354 126.143 52.9219V53H125.195ZM123.696 52.3115C123.979 52.3115 124.248 52.2383 124.502 52.0918C124.756 51.9453 124.94 51.7549 125.054 51.5205V50.4365H124.346C123.239 50.4365 122.686 50.7604 122.686 51.4082C122.686 51.6914 122.78 51.9128 122.969 52.0723C123.158 52.2318 123.4 52.3115 123.696 52.3115ZM128.599 46.4375V47.7168H129.585V48.415H128.599V51.6914C128.599 51.903 128.643 52.0625 128.73 52.1699C128.818 52.2741 128.968 52.3262 129.18 52.3262C129.284 52.3262 129.427 52.3066 129.609 52.2676V53C129.372 53.0651 129.141 53.0977 128.916 53.0977C128.512 53.0977 128.208 52.9756 128.003 52.7314C127.798 52.4873 127.695 52.1406 127.695 51.6914V48.415H126.733V47.7168H127.695V46.4375H128.599ZM131.626 53H130.723V47.7168H131.626V53ZM130.649 46.3154C130.649 46.1689 130.693 46.0452 130.781 45.9443C130.872 45.8434 131.006 45.793 131.182 45.793C131.357 45.793 131.491 45.8434 131.582 45.9443C131.673 46.0452 131.719 46.1689 131.719 46.3154C131.719 46.4619 131.673 46.584 131.582 46.6816C131.491 46.7793 131.357 46.8281 131.182 46.8281C131.006 46.8281 130.872 46.7793 130.781 46.6816C130.693 46.584 130.649 46.4619 130.649 46.3154ZM134.819 51.7744L136.128 47.7168H137.051L135.156 53H134.468L132.554 47.7168H133.477L134.819 51.7744ZM140.044 53.0977C139.328 53.0977 138.745 52.8633 138.296 52.3945C137.847 51.9225 137.622 51.2926 137.622 50.5049V50.3389C137.622 49.8148 137.721 49.3477 137.92 48.9375C138.122 48.5241 138.402 48.2018 138.76 47.9707C139.121 47.7363 139.512 47.6191 139.932 47.6191C140.618 47.6191 141.152 47.8454 141.533 48.2979C141.914 48.7503 142.104 49.3981 142.104 50.2412V50.6172H138.525C138.538 51.138 138.69 51.5596 138.979 51.8818C139.272 52.2008 139.644 52.3604 140.093 52.3604C140.412 52.3604 140.682 52.2952 140.903 52.165C141.125 52.0348 141.318 51.8623 141.484 51.6475L142.036 52.0771C141.593 52.7575 140.929 53.0977 140.044 53.0977ZM139.932 48.3613C139.567 48.3613 139.261 48.4948 139.014 48.7617C138.766 49.0254 138.613 49.3965 138.555 49.875H141.201V49.8066C141.175 49.3477 141.051 48.9928 140.83 48.7422C140.609 48.4883 140.309 48.3613 139.932 48.3613ZM146.86 46.4375V47.7168H147.847V48.415H146.86V51.6914C146.86 51.903 146.904 52.0625 146.992 52.1699C147.08 52.2741 147.23 52.3262 147.441 52.3262C147.546 52.3262 147.689 52.3066 147.871 52.2676V53C147.633 53.0651 147.402 53.0977 147.178 53.0977C146.774 53.0977 146.47 52.9756 146.265 52.7314C146.06 52.4873 145.957 52.1406 145.957 51.6914V48.415H144.995V47.7168H145.957V46.4375H146.86ZM148.569 50.3096C148.569 49.792 148.67 49.3265 148.872 48.9131C149.077 48.4997 149.36 48.1807 149.722 47.9561C150.086 47.7314 150.501 47.6191 150.967 47.6191C151.686 47.6191 152.267 47.8682 152.71 48.3662C153.156 48.8643 153.379 49.5267 153.379 50.3535V50.417C153.379 50.9313 153.28 51.3936 153.081 51.8037C152.886 52.2106 152.604 52.528 152.236 52.7559C151.872 52.9837 151.452 53.0977 150.977 53.0977C150.26 53.0977 149.679 52.8486 149.233 52.3506C148.791 51.8525 148.569 51.1934 148.569 50.373V50.3096ZM149.478 50.417C149.478 51.0029 149.613 51.4733 149.883 51.8281C150.156 52.1829 150.521 52.3604 150.977 52.3604C151.436 52.3604 151.8 52.1813 152.07 51.8232C152.34 51.4619 152.476 50.9574 152.476 50.3096C152.476 49.7301 152.337 49.2614 152.061 48.9033C151.787 48.542 151.423 48.3613 150.967 48.3613C150.521 48.3613 150.161 48.5387 149.888 48.8936C149.614 49.2484 149.478 49.7562 149.478 50.417ZM157.134 53V45.8906H159.458C160.229 45.8906 160.809 46.0501 161.196 46.3691C161.587 46.6882 161.782 47.1602 161.782 47.7852C161.782 48.1172 161.688 48.4118 161.499 48.6689C161.31 48.9229 161.053 49.1198 160.728 49.2598C161.112 49.3672 161.414 49.5723 161.636 49.875C161.86 50.1745 161.973 50.5326 161.973 50.9492C161.973 51.5872 161.766 52.0885 161.353 52.4531C160.939 52.8177 160.355 53 159.6 53H157.134ZM158.071 49.6748V52.2334H159.619C160.055 52.2334 160.399 52.1211 160.649 51.8965C160.903 51.6686 161.03 51.3561 161.03 50.959C161.03 50.1029 160.565 49.6748 159.634 49.6748H158.071ZM158.071 48.9229H159.487C159.897 48.9229 160.225 48.8203 160.469 48.6152C160.716 48.4102 160.84 48.1318 160.84 47.7803C160.84 47.3896 160.726 47.1064 160.498 46.9307C160.27 46.7516 159.924 46.6621 159.458 46.6621H158.071V48.9229ZM165.776 48.5273C165.64 48.5046 165.492 48.4932 165.332 48.4932C164.74 48.4932 164.338 48.7454 164.126 49.25V53H163.223V47.7168H164.102L164.116 48.3271C164.412 47.8551 164.832 47.6191 165.376 47.6191C165.552 47.6191 165.685 47.6419 165.776 47.6875V48.5273ZM169.678 53C169.626 52.8958 169.583 52.7103 169.551 52.4434C169.131 52.8796 168.63 53.0977 168.047 53.0977C167.526 53.0977 167.098 52.9512 166.763 52.6582C166.431 52.362 166.265 51.9876 166.265 51.5352C166.265 50.985 166.473 50.5586 166.89 50.2559C167.31 49.9499 167.899 49.7969 168.657 49.7969H169.536V49.3818C169.536 49.0661 169.442 48.8154 169.253 48.6299C169.064 48.4411 168.786 48.3467 168.418 48.3467C168.096 48.3467 167.826 48.4281 167.607 48.5908C167.389 48.7536 167.28 48.9505 167.28 49.1816H166.372C166.372 48.918 166.465 48.6641 166.65 48.4199C166.839 48.1725 167.093 47.9772 167.412 47.834C167.734 47.6908 168.088 47.6191 168.472 47.6191C169.08 47.6191 169.557 47.7721 169.902 48.0781C170.247 48.3809 170.426 48.7992 170.439 49.333V51.7646C170.439 52.2497 170.501 52.6354 170.625 52.9219V53H169.678ZM168.179 52.3115C168.462 52.3115 168.73 52.2383 168.984 52.0918C169.238 51.9453 169.422 51.7549 169.536 51.5205V50.4365H168.828C167.721 50.4365 167.168 50.7604 167.168 51.4082C167.168 51.6914 167.262 51.9128 167.451 52.0723C167.64 52.2318 167.882 52.3115 168.179 52.3115ZM173.975 52.3604C174.297 52.3604 174.578 52.2627 174.819 52.0674C175.06 51.8721 175.194 51.6279 175.22 51.335H176.074C176.058 51.6377 175.954 51.9258 175.762 52.1992C175.57 52.4727 175.312 52.6908 174.99 52.8535C174.671 53.0163 174.333 53.0977 173.975 53.0977C173.255 53.0977 172.682 52.8584 172.256 52.3799C171.833 51.8981 171.621 51.2406 171.621 50.4072V50.2559C171.621 49.7415 171.715 49.2842 171.904 48.8838C172.093 48.4834 172.363 48.1725 172.715 47.9512C173.07 47.7298 173.488 47.6191 173.97 47.6191C174.562 47.6191 175.054 47.7965 175.444 48.1514C175.838 48.5062 176.048 48.9668 176.074 49.5332H175.22C175.194 49.1914 175.063 48.9115 174.829 48.6934C174.598 48.472 174.312 48.3613 173.97 48.3613C173.511 48.3613 173.154 48.5273 172.9 48.8594C172.65 49.1882 172.524 49.665 172.524 50.29V50.4609C172.524 51.0697 172.65 51.5384 172.9 51.8672C173.151 52.196 173.509 52.3604 173.975 52.3604ZM179.282 53.0977C178.566 53.0977 177.983 52.8633 177.534 52.3945C177.085 51.9225 176.86 51.2926 176.86 50.5049V50.3389C176.86 49.8148 176.96 49.3477 177.158 48.9375C177.36 48.5241 177.64 48.2018 177.998 47.9707C178.359 47.7363 178.75 47.6191 179.17 47.6191C179.857 47.6191 180.391 47.8454 180.771 48.2979C181.152 48.7503 181.343 49.3981 181.343 50.2412V50.6172H177.764C177.777 51.138 177.928 51.5596 178.218 51.8818C178.511 52.2008 178.882 52.3604 179.331 52.3604C179.65 52.3604 179.92 52.2952 180.142 52.165C180.363 52.0348 180.557 51.8623 180.723 51.6475L181.274 52.0771C180.832 52.7575 180.168 53.0977 179.282 53.0977ZM179.17 48.3613C178.805 48.3613 178.499 48.4948 178.252 48.7617C178.005 49.0254 177.852 49.3965 177.793 49.875H180.439V49.8066C180.413 49.3477 180.29 48.9928 180.068 48.7422C179.847 48.4883 179.548 48.3613 179.17 48.3613ZM185.469 51.5986C185.469 51.3545 185.376 51.1657 185.19 51.0322C185.008 50.8955 184.688 50.7783 184.229 50.6807C183.773 50.583 183.41 50.4658 183.14 50.3291C182.873 50.1924 182.674 50.0296 182.544 49.8408C182.417 49.652 182.354 49.4274 182.354 49.167C182.354 48.734 182.536 48.3678 182.9 48.0684C183.268 47.7689 183.737 47.6191 184.307 47.6191C184.906 47.6191 185.391 47.7738 185.762 48.083C186.136 48.3923 186.323 48.7878 186.323 49.2695H185.415C185.415 49.0221 185.309 48.8089 185.098 48.6299C184.889 48.4508 184.626 48.3613 184.307 48.3613C183.978 48.3613 183.721 48.4329 183.535 48.5762C183.35 48.7194 183.257 48.9066 183.257 49.1377C183.257 49.3558 183.343 49.5202 183.516 49.6309C183.688 49.7415 183.999 49.8473 184.448 49.9482C184.901 50.0492 185.267 50.1696 185.547 50.3096C185.827 50.4495 186.034 50.6188 186.167 50.8174C186.304 51.0127 186.372 51.252 186.372 51.5352C186.372 52.0072 186.183 52.3864 185.806 52.6729C185.428 52.9561 184.938 53.0977 184.336 53.0977C183.913 53.0977 183.538 53.0228 183.213 52.873C182.887 52.7233 182.632 52.515 182.446 52.248C182.264 51.9779 182.173 51.6865 182.173 51.374H183.076C183.092 51.6768 183.213 51.9176 183.438 52.0967C183.665 52.2725 183.965 52.3604 184.336 52.3604C184.678 52.3604 184.951 52.292 185.156 52.1553C185.365 52.0153 185.469 51.8298 185.469 51.5986Z" fill="black"/>
</svg>
